{
    "backgroundColor": "${backGroundColor @context='styleToken'}",
    "fontColor": "${fontColor @ context='styleToken'}",
    "contentFontColor": "#171717",
    "descr": "${properties.description}",
    "linkUrl": "${properties.linkUrl}",
    "linkText": "${properties.linkUrl}"
}
