{
    "funds": [
        {
            "fundId": "F_ACA",
            "fundNm": "MainStay Conservative Allocation Fund",
            "productType": "ETF",
            "mfEtfAssetDiversification": [
                {
                    "effectiveDate": "2020-03-31",
                    "labelYearRange": "Cash and Other Assets (less liabilities)",
                    "ratioPercent": 3.8,
                    "sortOrder": 8,
                    "metricsType": "ASSET_DIVERSIFICATION_Fixed Income/Other"
                },
                {
                    "effectiveDate": "2020-03-28",
                    "labelYearRange": "U.S. Equity",
                    "ratioPercent": 26.1,
                    "sortOrder": 1,
                    "metricsType": "ASSET_DIVERSIFICATION_Equity"
                },
                {
                    "effectiveDate": "2020-03-31",
                    "labelYearRange": "International Equity",
                    "ratioPercent": 9.8,
                    "sortOrder": 2,
                    "metricsType": "ASSET_DIVERSIFICATION_Equity"
                },
                {
                    "effectiveDate": "2020-05-01",
                    "labelYearRange": "Convertible",
                    "ratioPercent": 1.2,
                    "sortOrder": 4,
                    "metricsType": "ASSET_DIVERSIFICATION_Fixed Income/Other"
                },
                {
                    "effectiveDate": "2020-03-20",
                    "labelYearRange": "Taxable Bond",
                    "ratioPercent": 58.5,
                    "sortOrder": 5,
                    "metricsType": "ASSET_DIVERSIFICATION_Fixed Income/Other"
                }
            ]
        }
    ]
}
