{
    "results": {
        "totalHits": 5,
        "totalTime": 10,
        "feedback": [
            {
                "messageName": "abc.searchProfile",
                "stageName": "applyBusinessCenter",
                "message": "NYLIM_Global",
                "properties": {}
            },
            {
                "messageName": "abc.campaign",
                "stageName": "applyBusinessCenter",
                "message": "default",
                "properties": {}
            },
            {
                "messageName": "synonyms.dictionary",
                "stageName": "queryAttivioLinguistics.querySynonymizer",
                "message": "{\"name\" : \"nylim_global_synonym/en\", \"mtime\" : 1590087376178, \"loadTime\" : \"106ms\", \"termCount\" : 0}",
                "properties": {}
            }
        ],
        "placements": [
            {
                "label": "Test Investment 1",
                "linkUrl": "https://www.newyorklife.com",
                "linkText": "Investments Label 1 | Investments Description text",
                "imageUrl": null,
                "markup": null
            },
            {
                "imageUrl": null,
                "markup": null
            },
            {
                "label": "Test Investment 3",
                "linkUrl": "https://www.newyorklife.com",
                "linkText": "Investments Label 3 | Investments Description text",
                "imageUrl": null,
                "markup": null
            }
        ],
        "facets": [
            {
                "name": "facet_about-new-york-life-investment",
                "field": "facet_about-new-york-life-investment",
                "label": "About New York Life Investments",
                "buckets": [
                    {
                        "value": "Who We Are",
                        "count": 1,
                        "filter": "facet_about-new-york-life-investment:FACET(\"Who We Are\")"
                    }
                ]
            },
            {
                "name": "facet_product-types",
                "field": "facet_product-types",
                "label": "Product Types",
                "buckets": [
                    {
                        "value": "Mutual Fun",
                        "count": 3,
                        "filter": "facet_product-types:FACET(\"Mutual Funds\")"
                    }
                ]
            },
            {
                "name": "facet_asset-class",
                "field": "facet_asset-class",
                "label": "Asset Class",
                "buckets": [
                    {
                        "value": "Alternatives",
                        "count": 3,
                        "filter": "facet_asset-class:FACET(Alternatives)"
                    }
                ]
            },
            {
                "name": "facet_strategy",
                "field": "facet_strategy",
                "label": "Strategy",
                "buckets": [
                    {
                        "value": "Generating Income",
                        "count": 1,
                        "filter": "facet_strategy:FACET(\"Generating Income\")"
                    },
                    {
                        "value": "Longevity and Growth",
                        "count": 2,
                        "filter": "facet_strategy:FACET(\"Longevity and Growth\")"
                    }
                ]
            },
            {
                "name": "facet_boutiques",
                "field": "facet_boutiques",
                "label": "Boutiques",
                "buckets": [
                    {
                        "value": "Ausbil",
                        "count": 1,
                        "filter": "facet_boutiques:FACET(Ausbil)"
                    },
                    {
                        "value": "Credit Value Partners",
                        "count": 1,
                        "filter": "facet_boutiques:FACET(\"Credit Value Partners\")"
                    }
                ]
            },
            {
                "name": "facet_publication-type",
                "field": "facet_publication-type",
                "label": "Publication Type",
                "buckets": [
                    {
                        "value": "Fact Sheets",
                        "count": 2,
                        "filter": "facet_publication-type:FACET(\"Fact Sheets\")"
                    },
                    {
                        "value": "Forms and Applications",
                        "count": 2,
                        "filter": "facet_publication-type:FACET(\"Forms and Applications\")"
                    }
                ]
            },
            {
                "name": "facet_other-content-formats",
                "field": "facet_other-content-formats",
                "label": "Other Content Formats",
                "buckets": [
                    {
                        "value": "Document",
                        "count": 1,
                        "filter": "facet_other-content-formats:FACET(Document)"
                    }
                ]
            },
            {
                "name": "facet_exposure",
                "field": "facet_exposure",
                "label": "Exposure",
                "buckets": [
                    {
                        "value": "Emerging Markets",
                        "count": 1,
                        "filter": "facet_exposure:FACET(\"Emerging Markets\")"
                    },
                    {
                        "value": "U.S.",
                        "count": 1,
                        "filter": "facet_exposure:FACET(U.S.)"
                    }
                ]
            }
        ],
        "documents": [
            {
                "fields": {
                    ".score": [
                        0.0
                    ],
                    ".id": [
                        "https://dev.newyorklifeinvestments.com/qa/sprint-7/qadisclosure-"
                    ],
                    ".zone": [
                        "default"
                    ],
                    "title": [
                        "1QADisclosure"
                    ],
                    "language": [
                        "English"
                    ],
                    "languages": [
                        "English"
                    ],
                    "uri": [
                        "https://dev.newyorklifeinvestments.com/qa/sprint-7/qadisclosure-"
                    ],
                    "table": [
                        "NYLIM_page"
                    ],
                    "indexeddate": [
                        "2020-05-14T01:00:49.000+0000"
                    ],
                    "mimetype": [
                        "text/html"
                    ],
                    "doctype": [
                        "HTML Document"
                    ],
                    "parentdoctype": [
                        "HTML"
                    ],
                    "linkcount": [
                        2
                    ],
                    "linkfactor": [
                        0.0
                    ],
                    "anchortext": [
                        "sitemap.outlink"
                    ],
                    "processing.feedback.level": [
                        "WARN"
                    ],
                    "processing.feedback.message": [
                        "Could not parse Date value 'Wed, 13 May 2020 15:00:43 GMT' in field named 'Date'"
                    ],
                    "processing.feedback.component": [
                        "ingestInit.dateParser"
                    ],
                    "processing.feedback.code": [
                        "BASE_TRANSFORMER-1"
                    ],
                    "depth": [
                        1
                    ],
                    "attr_content-type": [
                        "page"
                    ],
                    "security.read": [
                        "anonymous:anonymous"
                    ]
                }
            },
            {
                "fields": {
                    ".score": [
                        0.0
                    ],
                    ".id": [
                        "https://dev.newyorklifeinvestments.com/qa/qa-automation/indexes-table0/iq-hedge-composite-beta-index"
                    ],
                    ".zone": [
                        "default"
                    ],
                    "pub_date": [
                        "2019-12-29T00:00:00.000+0000"
                    ],
                    "teaser": [
                        "2Email Address * Submit Button"
                    ],
                    "language": [
                        "English"
                    ],
                    "languages": [
                        "English"
                    ],
                    "table": [
                        "NYLIM_page"
                    ],
                    "indexeddate": [
                        "2020-05-26T13:00:47.000+0000"
                    ],
                    "text": [
                        "Email Address * Submit Button"
                    ],
                    "mimetype": [
                        "text/html"
                    ],
                    "doctype": [
                        "HTML Document"
                    ],
                    "parentdoctype": [
                        "HTML"
                    ],
                    "linkcount": [
                        2
                    ],
                    "linkfactor": [
                        0.0
                    ],
                    "anchortext": [
                        "Strategies XF Old",
                        "sitemap.outlink"
                    ],
                    "processing.feedback.level": [
                        "WARN"
                    ],
                    "processing.feedback.message": [
                        "Could not parse Date value 'Mon, 25 May 2020 13:30:56 GMT' in field named 'Date'"
                    ],
                    "processing.feedback.component": [
                        "ingestInit.dateParser"
                    ],
                    "processing.feedback.code": [
                        "BASE_TRANSFORMER-1"
                    ],
                    "depth": [
                        1
                    ],
                    "attr_content-type": [
                        "page"
                    ],
                    "security.read": [
                        "anonymous:anonymous"
                    ]
                }
            },
            {
                "fields": {
                    ".score": [
                        0.0
                    ],
                    ".id": [
                        "https://dev.newyorklifeinvestments.com/assets/documents/featured-carousel/PDFwithLable_addLabel.pdf"
                    ],
                    ".zone": [
                        "default"
                    ],
                    "date": [
                        "2014-10-22T14:29:11.000+0000"
                    ],
                    "teaser": [
                        "3PDF test file Purpose: Provide example of this file type Document file type: PDF Version: 1.0 Remark: Example content: The names \"John Doe\" for males, \"Jane Doe\" or \"Jane Roe\" for females, or \"Jonnie Doe\" and \"Janie Doe\" for children, or just \"Doe\" non-gender-specifically are used as placeholder names for a party whose true identity is un-known or must be withheld in a legal action, case, or dis-cussion. The names are also used to refer to acorpse or hospital patient whose identity is unknown. This ... "
                    ],
                    "author": [
                        "Vb1"
                    ],
                    "language": [
                        "English"
                    ],
                    "languages": [
                        "English"
                    ],
                    "uri": [
                        "https://dev.newyorklifeinvestments.com/assets/documents/featured-carousel/PDFwithLable_addLabel.pdf"
                    ],
                    "table": [
                        "NYLIM_page"
                    ],
                    "indexeddate": [
                        "2020-05-27T13:00:44.000+0000"
                    ],
                    "creationdate": [
                        "2014-10-22T14:29:10.000+0000"
                    ],
                    "text": [
                        "PDF test file Purpose: Provide example of this file type Document file type: PDF Version: 1.0 Remark: Example content: The names \"John Doe\" for males, \"Jane Doe\" or \"Jane Roe\" for females, or \"Jonnie Doe\" and \"Janie Doe\" for children, or just \"Doe\" non-gender-specifically are used as placeholder names for a party whose true identity is un-known or must be withheld in a legal action, case, or dis-cussion. The names are also used to refer to acorpse or hospital patient whose identity is unknown. This practice is widely used in the United States and Canada, but is rarely used in other English-speaking coun-tries including the United Kingdom itself, from where the use of \"John Doe\" in a legal context origi-nates. The names Joe Bloggs or John Smith are used in the UK instead, as well as in Australia and New Zealand. John Doe is sometimes used to refer to a typical male in other contexts as well, in a similar manner to John Q. Public, known in Great Britain as Joe Public, John Smith or Joe Bloggs. For example, the first name listed on a form is often John Doe, along with a fictional address or other fictional information to provide an example of how to fill in the form. The name is also used frequently in popular culture, for example in the Frank Capra film Meet John Doe. John Doe was also the name of a 2002 American television series. Similarly, a child or baby whose identity is unknown may be referred to as Baby Doe. A notorious murder case in Kansas City, Missouri, referred to the baby victim as Precious Doe. Other unidentified female murder victims are Cali Doe and Princess Doe. Additional persons may be called James Doe, Judy Doe, etc. However, to avoid possible confusion, if two anonymous or unknown parties are cited in a specific case or action, the surnames Doe and Roe may be used simultaneously; for example, \"John Doe v. Jane Roe\". If several anonymous parties are referenced, they may simply be labelled John Doe #1, John Doe #2, etc. (the U.S. Operation Delego cited 21 (numbered) \"John Doe\"s) or labelled with other variants of Doe / Roe / Poe / etc. Other early alternatives such as John Stiles and Richard Miles are now rarely used, and Mary Major has been used in some American federal cases. File created by http://www.online-convert.com More example files: http://www.online-convert.com/file-type Text of “Example content”: Wikipedia License: Attribution-ShareAlike 3.0 Unported Feel free to use and share the file according to the license above."
                    ],
                    "mimetype": [
                        "application/pdf"
                    ],
                    "doctype": [
                        "Adobe Acrobat (PDF)"
                    ],
                    "parentdoctype": [
                        "Adobe Acrobat PDF"
                    ],
                    "people": [
                        "John Doe",
                        "Jane Doe",
                        "Jonnie Doe",
                        "Janie Doe",
                        "Doe",
                        "Joe Bloggs",
                        "John Smith",
                        "John",
                        "Joe Public",
                        "Frank Capra",
                        "Baby Doe",
                        "Cali Doe",
                        "James Doe",
                        "Judy Doe",
                        "Roe",
                        "Jane Roe",
                        "Poe",
                        "John Stiles",
                        "Richard Miles",
                        "Mary Major"
                    ],
                    "location": [
                        "United States",
                        "Canada",
                        "United Kingdom",
                        "UK",
                        "Australia",
                        "New Zealand",
                        "Great Britain",
                        "Kansas City, Missouri",
                        "U.S."
                    ],
                    "jobtitle": [
                        "Princess"
                    ],
                    "nationality": [
                        "English",
                        "American"
                    ],
                    "url": [
                        "http://www.online-convert.com",
                        "http://www.online-convert.com/file-type"
                    ],
                    "numbers": [
                        "1.0",
                        "first",
                        "2002",
                        "two",
                        "1",
                        "2",
                        "21",
                        "3.0"
                    ],
                    "linkcount": [
                        2
                    ],
                    "linkfactor": [
                        0.0
                    ],
                    "anchortext": [
                        "Label 1"
                    ],
                    "processing.feedback.level": [
                        "WARN"
                    ],
                    "processing.feedback.message": [
                        "Could not parse Date value 'Wed, 27 May 2020 10:00:56 GMT' in field named 'Date'"
                    ],
                    "processing.feedback.component": [
                        "ingestInit.dateParser"
                    ],
                    "processing.feedback.code": [
                        "BASE_TRANSFORMER-1"
                    ],
                    "application": [
                        "Acrobat PDFMaker 11 für Word",
                        "Adobe PDF Library 11.0"
                    ],
                    "sourcemodifieddate": [
                        "2014-10-22T12:29:01.000+0000"
                    ],
                    "keyphrases": [
                        "file type",
                        "Example content",
                        "whose identity",
                        "Joe Bloggs"
                    ],
                    "depth": [
                        2
                    ],
                    "attr_content-type": [
                        "page"
                    ],
                    "security.read": [
                        "anonymous:anonymous"
                    ]
                }
            },
            {
                "fields": {
                    ".score": [
                        0.0
                    ],
                    ".id": [
                        "https://dev.newyorklifeinvestments.com/assets/documents/featured-carousel/dumm3.pdf"
                    ],
                    ".zone": [
                        "default"
                    ],
                    "teaser": [
                        "4Dummy PDF file"
                    ],
                    "author": [
                        "Evangelos Vlachogiannis"
                    ],
                    "language": [
                        "Romanian"
                    ],
                    "languages": [
                        "Romanian"
                    ],
                    "uri": [
                        "https://dev.newyorklifeinvestments.com/assets/documents/featured-carousel/dumm3.pdf"
                    ],
                    "table": [
                        "NYLIM_page"
                    ],
                    "indexeddate": [
                        "2020-05-27T13:00:44.000+0000"
                    ],
                    "creationdate": [
                        "2007-02-23T17:56:37.000+0000"
                    ],
                    "text": [
                        "Dummy PDF file"
                    ],
                    "mimetype": [
                        "application/pdf"
                    ],
                    "doctype": [
                        "Adobe Acrobat (PDF)"
                    ],
                    "parentdoctype": [
                        "Adobe Acrobat PDF"
                    ],
                    "linkcount": [
                        2
                    ],
                    "linkfactor": [
                        0.0
                    ],
                    "processing.feedback.level": [
                        "WARN",
                        "WARN",
                        "WARN",
                        "WARN",
                        "WARN",
                        "WARN",
                        "WARN",
                        "WARN",
                        "WARN"
                    ],
                    "processing.feedback.message": [
                        "Could not parse Date value 'Wed, 27 May 2020 00:00:28 GMT' in field named 'Date'",
                        "No license present for language Romanian",
                        "No license present for language Romanian",
                        "No license present for language Romanian",
                        "No license present for language Romanian",
                        "No license present for language Romanian",
                        "No license present for language Romanian",
                        "No license present for language Romanian",
                        "KeyPhrases omitted: No language model for locale ro"
                    ],
                    "processing.feedback.component": [
                        "ingestInit.dateParser",
                        "ingestPreProcess.standardAnalyzer",
                        "ingestPreProcess.standardAnalyzer",
                        "ingestPreProcess.standardAnalyzer",
                        "ingestPreProcess.standardAnalyzer",
                        "ingestPreProcess.standardAnalyzer",
                        "ingestPreProcess.standardAnalyzer",
                        "ingestPreProcess.standardAnalyzer",
                        "ingestPostProcess.extractKeyPhrases"
                    ],
                    "processing.feedback.code": [
                        "BASE_TRANSFORMER-1",
                        "BASISTECH-17",
                        "BASISTECH-17",
                        "BASISTECH-17",
                        "BASISTECH-17",
                        "BASISTECH-17",
                        "BASISTECH-17",
                        "BASISTECH-17",
                        "LINGUISTIC_PROCESSING-900"
                    ],
                    "application": [
                        "Writer",
                        "OpenOffice.org 2.1"
                    ],
                    "duplicate": [
                        "https://dev.newyorklifeinvestments.com/assets/documents/featured-carousel/dummy2.pdf",
                        "https://dev.newyorklifeinvestments.com/assets/documents/featured-carousel/dummy.pdf"
                    ],
                    "depth": [
                        2
                    ],
                    "attr_content-type": [
                        "page"
                    ],
                    "security.read": [
                        "anonymous:anonymous"
                    ]
                }
            },
            {
                "fields": {
                    ".score": [
                        0.0
                    ],
                    ".id": [
                        "https://dev.newyorklifeinvestments.com/qa/qa-automation/timeline"
                    ],
                    ".zone": [
                        "default"
                    ],
                    "title": [
                        "5TimeLine"
                    ],
                    "teaser": [
                        "History of New York Life 1845 Nautilus Insurance co. Modal description in extra small narrow 1849 Renamed New York Life Insurance co. Modal Image size Extra small 1856 Company asset surpass $1 million Modal Image size small 1923 Company assets surpass $1 Billion Modal Image size Medium Narrow 1952 Company assets surpass $10 billion, Company assets surpass $10 billion, Company assets surpass $10 billion Modal Image size Medium Portrait 1986 Our unique model focuses on investing our time and capital ... "
                    ],
                    "language": [
                        "English"
                    ],
                    "languages": [
                        "English"
                    ],
                    "uri": [
                        "https://dev.newyorklifeinvestments.com/qa/qa-automation/timeline"
                    ],
                    "table": [
                        "NYLIM_page"
                    ],
                    "indexeddate": [
                        "2020-05-27T13:00:46.000+0000"
                    ],
                    "text": [
                        "History of New York Life 1845 Nautilus Insurance co. Modal description in extra small narrow 1849 Renamed New York Life Insurance co. Modal Image size Extra small 1856 Company asset surpass $1 million Modal Image size small 1923 Company assets surpass $1 Billion Modal Image size Medium Narrow 1952 Company assets surpass $10 billion, Company assets surpass $10 billion, Company assets surpass $10 billion Modal Image size Medium Portrait 1986 Our unique model focuses on investing our time and capital in emerging technologies that will dramatically impact the future of financial services. Modal Image size Medium 1980 Our unique model focuses on investing our time and capital in emerging technologies that will dramatically impact the future of financial services. Modal Image size large 2000 Our unique model focuses on investing our time and capital in emerging technologies that will dramatically impact the future of financial services. Modal Image SizeExtraLarge Model Description 2006 Our unique model focuses on investing our time and capital in emerging technologies that will dramatically impact the future of financial services. Modal Image size ExtraLargeMobileHighRes"
                    ],
                    "mimetype": [
                        "text/html"
                    ],
                    "doctype": [
                        "HTML Document"
                    ],
                    "parentdoctype": [
                        "HTML"
                    ],
                    "location": [
                        "New York"
                    ],
                    "company": [
                        "Renamed New York Life Insurance"
                    ],
                    "product": [
                        "Medium Narrow"
                    ],
                    "money": [
                        "$1 million",
                        "$10 billion"
                    ],
                    "numbers": [
                        "1845",
                        "1849",
                        "1856",
                        "1923",
                        "1 Billion",
                        "1952",
                        "1986",
                        "1980",
                        "2000",
                        "2006"
                    ],
                    "linkcount": [
                        2
                    ],
                    "linkfactor": [
                        0.0
                    ],
                    "anchortext": [
                        "Strategies XF Old",
                        "sitemap.outlink"
                    ],
                    "processing.feedback.level": [
                        "WARN"
                    ],
                    "processing.feedback.message": [
                        "Could not parse Date value 'Tue, 26 May 2020 16:31:08 GMT' in field named 'Date'"
                    ],
                    "processing.feedback.component": [
                        "ingestInit.dateParser"
                    ],
                    "processing.feedback.code": [
                        "BASE_TRANSFORMER-1"
                    ],
                    "h2": [
                        "History of New York Life"
                    ],
                    "keyphrases": [
                        "extra small",
                        "Modal Image size",
                        "assets surpass",
                        "Modal Image size Medium",
                        "unique model focuses",
                        "emerging technologies",
                        "dramatically impact",
                        "Modal Image"
                    ],
                    "depth": [
                        1
                    ],
                    "attr_content-type": [
                        "page"
                    ],
                    "security.read": [
                        "anonymous:anonymous"
                    ]
                }
            },
            {
                "fields": {
                    ".score": [
                        0.0
                    ],
                    ".id": [
                        "https://dev.newyorklifeinvestments.com/qa/qa-automation/vanityurl"
                    ],
                    ".zone": [
                        "default"
                    ],
                    "title": [
                        "6VanityUrl"
                    ],
                    "language": [
                        "English"
                    ],
                    "languages": [
                        "English"
                    ],
                    "uri": [
                        "https://dev.newyorklifeinvestments.com/qa/qa-automation/vanityurl"
                    ],
                    "table": [
                        "NYLIM_page"
                    ],
                    "indexeddate": [
                        "2020-05-27T13:00:46.000+0000"
                    ],
                    "mimetype": [
                        "text/html"
                    ],
                    "doctype": [
                        "HTML Document"
                    ],
                    "parentdoctype": [
                        "HTML"
                    ],
                    "linkcount": [
                        2
                    ],
                    "linkfactor": [
                        0.0
                    ],
                    "anchortext": [
                        "sitemap.outlink"
                    ],
                    "processing.feedback.level": [
                        "WARN"
                    ],
                    "processing.feedback.message": [
                        "Could not parse Date value 'Tue, 26 May 2020 16:30:44 GMT' in field named 'Date'"
                    ],
                    "processing.feedback.component": [
                        "ingestInit.dateParser"
                    ],
                    "processing.feedback.code": [
                        "BASE_TRANSFORMER-1"
                    ],
                    "depth": [
                        1
                    ],
                    "attr_content-type": [
                        "page"
                    ],
                    "security.read": [
                        "anonymous:anonymous"
                    ]
                }
            },
            {
                "fields": {
                    ".score": [
                        0.0
                    ],
                    ".id": [
                        "https://dev.newyorklifeinvestments.com/qa/sprint-10/aem-6-5-upgrade-moved"
                    ],
                    ".zone": [
                        "default"
                    ],
                    "pub_date": [
                        "2019-12-29T00:00:00.000+0000"
                    ],
                    "title": [
                        "7AEM 6.5 Upgrade Moved"
                    ],
                    "language": [
                        "English"
                    ],
                    "languages": [
                        "English"
                    ],
                    "uri": [
                        "https://dev.newyorklifeinvestments.com/qa/sprint-10/aem-6-5-upgrade-moved"
                    ],
                    "table": [
                        "NYLIM_page"
                    ],
                    "indexeddate": [
                        "2020-05-27T13:00:46.000+0000"
                    ],
                    "mimetype": [
                        "text/html"
                    ],
                    "doctype": [
                        "HTML Document"
                    ],
                    "parentdoctype": [
                        "HTML"
                    ],
                    "linkcount": [
                        2
                    ],
                    "linkfactor": [
                        0.0
                    ],
                    "anchortext": [
                        "Strategies XF Old",
                        "sitemap.outlink"
                    ],
                    "processing.feedback.level": [
                        "WARN"
                    ],
                    "processing.feedback.message": [
                        "Could not parse Date value 'Tue, 26 May 2020 16:31:24 GMT' in field named 'Date'"
                    ],
                    "processing.feedback.component": [
                        "ingestInit.dateParser"
                    ],
                    "processing.feedback.code": [
                        "BASE_TRANSFORMER-1"
                    ],
                    "depth": [
                        1
                    ],
                    "attr_content-type": [
                        "page"
                    ],
                    "security.read": [
                        "anonymous:anonymous"
                    ]
                }
            },
            {
                "fields": {
                    ".score": [
                        0.0
                    ],
                    ".id": [
                        "https://dev.newyorklifeinvestments.com/qa/sprint-10/aem-6-5-upgrade-moved/child-page"
                    ],
                    ".zone": [
                        "default"
                    ],
                    "pub_date": [
                        "2019-12-29T00:00:00.000+0000"
                    ],
                    "title": [
                        "8Child Page"
                    ],
                    "language": [
                        "English"
                    ],
                    "languages": [
                        "English"
                    ],
                    "uri": [
                        "https://dev.newyorklifeinvestments.com/qa/sprint-10/aem-6-5-upgrade-moved/child-page"
                    ],
                    "table": [
                        "NYLIM_page"
                    ],
                    "indexeddate": [
                        "2020-05-27T13:00:46.000+0000"
                    ],
                    "mimetype": [
                        "text/html"
                    ],
                    "doctype": [
                        "HTML Document"
                    ],
                    "parentdoctype": [
                        "HTML"
                    ],
                    "linkcount": [
                        2
                    ],
                    "linkfactor": [
                        0.0
                    ],
                    "anchortext": [
                        "Strategies XF Old",
                        "sitemap.outlink"
                    ],
                    "processing.feedback.level": [
                        "WARN"
                    ],
                    "processing.feedback.message": [
                        "Could not parse Date value 'Tue, 26 May 2020 16:30:47 GMT' in field named 'Date'"
                    ],
                    "processing.feedback.component": [
                        "ingestInit.dateParser"
                    ],
                    "processing.feedback.code": [
                        "BASE_TRANSFORMER-1"
                    ],
                    "depth": [
                        1
                    ],
                    "attr_content-type": [
                        "page"
                    ],
                    "security.read": [
                        "anonymous:anonymous"
                    ]
                }
            },
            {
                "fields": {
                    ".score": [
                        0.0
                    ],
                    ".id": [
                        "https://dev.newyorklifeinvestments.com/qa/sprint-10/anchor-demo"
                    ],
                    ".zone": [
                        "default"
                    ],
                    "pub_date": [
                        "2019-12-29T00:00:00.000+0000"
                    ],
                    "title": [
                        "9Anchor Demo"
                    ],
                    "teaser": [
                        "Mobile Header Section Title 1 Section Title 1 Section Title 1 As Date 2020, July, 04 Link 1 Link 2 Link 3"
                    ],
                    "language": [
                        "English"
                    ],
                    "languages": [
                        "English"
                    ],
                    "uri": [
                        "https://dev.newyorklifeinvestments.com/qa/sprint-10/anchor-demo"
                    ],
                    "table": [
                        "NYLIM_page"
                    ],
                    "indexeddate": [
                        "2020-05-27T13:00:46.000+0000"
                    ],
                    "text": [
                        "Mobile Header Section Title 1 Section Title 1 Section Title 1 As Date 2020, July, 04 Link 1 Link 2 Link 3"
                    ],
                    "mimetype": [
                        "text/html"
                    ],
                    "doctype": [
                        "HTML Document"
                    ],
                    "parentdoctype": [
                        "HTML"
                    ],
                    "numbers": [
                        "1",
                        "04"
                    ],
                    "linkcount": [
                        2
                    ],
                    "linkfactor": [
                        0.0
                    ],
                    "anchortext": [
                        "Strategies XF Old",
                        "sitemap.outlink"
                    ],
                    "processing.feedback.level": [
                        "WARN",
                        "WARN"
                    ],
                    "processing.feedback.message": [
                        "Could not parse Date value 'Tue, 26 May 2020 16:30:44 GMT' in field named 'Date'",
                        "Illegal field value for field 'extracteddate': Invalid ISO-8601 date '2020, July'"
                    ],
                    "processing.feedback.component": [
                        "ingestInit.dateParser",
                        "index.writer"
                    ],
                    "processing.feedback.code": [
                        "BASE_TRANSFORMER-1",
                        "SCHEMA-2"
                    ],
                    "h2": [
                        "Mobile Header",
                        "Section Title 1"
                    ],
                    "h6": [
                        "Section Title 1 Section Title 1"
                    ],
                    "keyphrases": [
                        "Section Title"
                    ],
                    "depth": [
                        1
                    ],
                    "attr_content-type": [
                        "page"
                    ],
                    "security.read": [
                        "anonymous:anonymous"
                    ]
                }
            },
            {
                "fields": {
                    ".score": [
                        0.0
                    ],
                    ".id": [
                        "https://dev.newyorklifeinvestments.com/qa/sprint-10/cta-link-test-page"
                    ],
                    ".zone": [
                        "default"
                    ],
                    "pub_date": [
                        "2019-12-29T00:00:00.000+0000"
                    ],
                    "title": [
                        "10CTA link Test page"
                    ],
                    "teaser": [
                        "Investing tools We give students aged 12-18 a head-start in their futures through our immersive career experience programmes. Experiences in: Architecture — Art — Computer Science — Dentistry — Engineering — Entrepreneurship — Fashion Design — Filmmaking — International Development — Investment Banking — Journalism — Law — Management Consultancy — Marketing — Music — Politics — Psychology — Publishing — Veterinary Science NYL_Illustration_Family Sample"
                    ],
                    "language": [
                        "English"
                    ],
                    "languages": [
                        "English"
                    ],
                    "uri": [
                        "https://dev.newyorklifeinvestments.com/qa/sprint-10/cta-link-test-page"
                    ],
                    "table": [
                        "NYLIM_page"
                    ],
                    "indexeddate": [
                        "2020-05-27T13:00:46.000+0000"
                    ],
                    "text": [
                        "Investing tools We give students aged 12-18 a head-start in their futures through our immersive career experience programmes. Experiences in: Architecture — Art — Computer Science — Dentistry — Engineering — Entrepreneurship — Fashion Design — Filmmaking — International Development — Investment Banking — Journalism — Law — Management Consultancy — Marketing — Music — Politics — Psychology — Publishing — Veterinary Science NYL_Illustration_Family Sample"
                    ],
                    "mimetype": [
                        "text/html"
                    ],
                    "doctype": [
                        "HTML Document"
                    ],
                    "parentdoctype": [
                        "HTML"
                    ],
                    "company": [
                        "Dentistry",
                        "International Development",
                        "NYL"
                    ],
                    "numbers": [
                        "12",
                        "-18"
                    ],
                    "linkcount": [
                        2
                    ],
                    "linkfactor": [
                        0.0
                    ],
                    "anchortext": [
                        "Strategies XF Old",
                        "sitemap.outlink"
                    ],
                    "processing.feedback.level": [
                        "WARN"
                    ],
                    "processing.feedback.message": [
                        "Could not parse Date value 'Tue, 26 May 2020 16:30:46 GMT' in field named 'Date'"
                    ],
                    "processing.feedback.component": [
                        "ingestInit.dateParser"
                    ],
                    "processing.feedback.code": [
                        "BASE_TRANSFORMER-1"
                    ],
                    "h2": [
                        "Investing tools"
                    ],
                    "depth": [
                        1
                    ],
                    "attr_content-type": [
                        "page"
                    ],
                    "security.read": [
                        "anonymous:anonymous"
                    ]
                }
            }
        ],
        "facetTime": 0,
        "highlightTime": 0,
        "resultTime": 7,
        "searchTime": 0
    }
}
