<?xml version="1.0" encoding="UTF-8"?>
<svg width="24px" height="24px" viewBox="0 0 24 24" version="1.1" xmlns="http://www.w3.org/2000/svg" xmlns:xlink="http://www.w3.org/1999/xlink">
    <title>322703BE-7E01-4FDB-96AD-1742C3BBF6EC</title>
    <g id="5.5-Literature" stroke="none" stroke-width="1" fill="none" fill-rule="evenodd">
        <g id="XL-5.5b-Literature---FIN----Filter-Selected" transform="translate(-1092.000000, -930.000000)">
            <g id="PRODUCT-DOCUMENTS" transform="translate(165.000000, 605.000000)">
                <g id="Documents" transform="translate(190.000000, 244.000000)">
                    <g id="Table" transform="translate(0.000000, 57.000000)">
                        <g id="Table/Desktop/Product-Documents">
                            <g id="Icons/System/Email-Grey" transform="translate(737.000000, 24.000000)">
                                <rect id="boundry" x="0" y="0" width="24" height="24"></rect>
                                <path d="M1,4 L1,5.05 L1,5.334 L1,5.73133333 L1,18.0006667 L1,19.3333333 L2.33333333,19.3333333 L21.6666667,19.3333333 L23,19.3333333 L23,4 L1,4 Z M2.88133333,5.334 L21.3586667,5.334 L12.12,11.0953333 L2.88133333,5.334 Z M2.33333333,6.56333333 L12.12,12.6673333 L21.6666667,6.71333333 L21.6666667,18.0006667 L2.33333333,18.0006667 L2.33333333,6.56333333 Z" id="Fill-1-Copy" fill="#0A3C53"></path>
                            </g>
                        </g>
                    </g>
                </g>
            </g>
        </g>
    </g>
</svg>
