<?xml version="1.0" encoding="UTF-8"?>
<svg xmlns="http://www.w3.org/2000/svg" xmlns:xlink="http://www.w3.org/1999/xlink" width="10pt" height="6pt" viewBox="0 0 10 6" version="1.1">
<g id="surface1">
<path style=" stroke:none;fill-rule:evenodd;fill:#0A3C53;fill-opacity:1;" d="M 0 0.0585938 L 5 5.777344 L 10 0.0585938 Z M 0 0.0585938 "/>
</g>
</svg>
