{
    "productDetailLabels": {
        "nylim.numberOfHoldings": "Number of Holdings",
        "nylim.sI": "SI",
        "nylim.productType.etf.rowLabel": "ETF",
        "nylim.shareClass.investor.rowLabel": "IN",
        "nylim.assetClass.multiasset.rowLabel": "Multi-Asset",
        "nylim.shareClass.b.filterLabel": "Class B",
        "nylim.shareClass.c.filterLabel": "Class C",
        "nylim.shareClass.a.filterLabel": "Class A",
        "nylim.shareClass.r3.rowLabel": "R3",
        "nylim.mth": "MTH",
        "nylim.shareClass.investor.serviceValue": "IN",
        "nylim.shareClass.c.rowLabel": "C",
        "nylim.7DayYields": "7 Day Yields",
        "nylim.1Y": "1Y",
        "nylim.assetClass.alternative.label": "Alternative",
        "nylim.productType.iqIndex.label": "IQ Index",
        "nylim.productType.etf.serviceValue": "ETF",
        "nylim.percentageChangeDisclaimer": "Percentages based on total net assets and may change daily.",
        "nylim.premiumOrDiscount": "Premium or Discount (%)",
        "nylim.shareClass.etf.serviceValue": "ETF",
        "nylim.assetClass.alternative.serviceValue": "Alternative",
        "nylim.assetClass.equity.rowLabel": "Equities",
        "nylim.shareClass.etf.rowLabel": "ETF",
        "nylim.allShareClasses": "All Share Classes",
        "nylim.allocationToIndexIQSubSectors": "Allocation to IndexIQ Sub-Sectors",
        "nylim.productType.mutualFund.label": "Mutual Fund",
        "nylim.productType.closedEndFund.label": "Closed-End Fund",
        "nylim.atMarketPrice": "At Market Price",
        "nylim.topHoldingsIssuers": "Top Holdings/Issuers (%)",
        "nylim.assetClass.moneyMarket.rowLabel": "Money Market",
        "nylim.acquiredFundFees": "Acquired Fund Fees and Other Expenses",
        "nylim.assetClass.moneyMarket.filterLabel": "Money Market",
        "nylim.productType.closedEndFund.serviceValue": "Closed End Fund",
        "nylim.short": "Short",
        "nylim.shareClass.r2.serviceValue": "R2",
        "nylim.current7DayYield": "Current 7-Day Yield",
        "nylim.totalNetAssets": "Total Net Assets",
        "nylim.daysTradedAtAPremium": "Days Traded at a Premium",
        "nylim.shareClass.etf.filterLabel": "ETFs",
        "nylim.na": "N/A",
        "nylim.assetClass.fixedIncome.serviceValue": "Fixed Income",
        "nylim.assetClass.multiasset.serviceValue": "Allocation",
        "nylim.assetClass.fixedIncome.filterLabel": "Fixed Income",
        "nylim.benchmark": "Benchmark",
        "nylim.premiumDiscountPercent": "Premium / Discount (%)",
        "nylim.assetClass.moneyMarket.label": "Money Market",
        "nylim.morningstarRating": "Morningstar Rating",
        "nylim.morningstarCategoryAverage": "Morningstar Category Average",
        "nylim.assetClass.equity.serviceValue": "Equity",
        "nylim.assetClass.equity.label": "Equity",
        "nylim.10Y": "10Y",
        "nylim.assetClass.alternative.filterLabel": "Alternatives",
        "nylim.averageAnnualTotalReturns": "Average Annual Total Returns (%)",
        "nylim.shareClassNumber": "Share Class Number",
        "nylim.netAfterWaiver": "Net (After Waivers / Reimbursements)",
        "nylim.totalAnnualFundExpenses": "Total Annual Fund Operating Expenses",
        "nylim.none": "None",
        "nylim.no": "No",
        "nylim.shareClass.r1.rowLabel": "R1",
        "nylim.sectorAllocation": "Sector Allocation (%)",
        "nylim.annualTurnoverRate": "Annual Turnover Rate",
        "nylim.totalReturns": "Total Returns",
        "nylim.shareClass.r2.filterLabel": "Class R2",
        "nylim.assetClass.multiasset.label": "Multi-Asset",
        "nylim.fixedIncomeOrOther": "Fixed Income/Other",
        "nylim.expenseWaiver": "Expense Waiver / Reimbursement",
        "nylim.assetClass": "Asset Class",
        "nylim.shareClass.a.serviceValue": "A",
        "nylim.shareClass.i.serviceValue": "I",
        "nylim.shareClass.r1.serviceValue": "R1",
        "nylim.morningstarRatingDisclaimer": "Overall, based on the risk-adjusted returns from among",
        "nylim.portfolioDataAsOf": "Portfolio data as of",
        "nylim.shareClass.r6.filterLabel": "Class R6",
        "nylim.noResultsFoundMessage": "No matching result found",
        "nylim.productType": "Product Type",
        "nylim.daysTradedAtADiscount": "Days Traded at a Discount",
        "nylim.composition": "Composition",
        "nylim.minimumInitialInvestment": "Minimum Initial Investment",
        "nylim.dayDelay": "-Day Delay",
        "nylim.ytd": "YTD",
        "nylim.qtr": "QTR",
        "nylim.productType.iqIndex.serviceValue": "IQ Index",
        "nylim.shareClass.b.rowLabel": "B",
        "nylim.topCountries": "Top Countries (%)",
        "nylim.shareClass.investor.filterLabel": "Class INV",
        "nylim.monthly": "Monthly",
        "nylim.marketBasedNav": "Market Based NAV",
        "nylim.asOfLowerCase": "as of",
        "nylim.avgExpenses": "Average Expenses (%)",
        "nylim.productType.closedEndFund.rowLabel": "CEF",
        "nylim.quarterly": "Quarterly",
        "nylim.navAmortizedCost": "NAV (Amortized Cost)",
        "nylim.shareClass.i.rowLabel": "I",
        "nylim.topHoldings": "Top Holdings (%)",
        "nylim.shareClass.r2.rowLabel": "R2",
        "nylim.unaudited": "(Unaudited)",
        "nylim.inceptionDateLong": "Inception Date",
        "nylim.keyFacts": "Key Facts",
        "nylim.assetClass.moneyMarket.serviceValue": "Money Market",
        "nylim.unsubsidizedYield": "Unsubsidized Yield",
        "nylim.withSalesCharge": "With Sales Charge",
        "nylim.monthlyAccruedDaily": "Monthly (Accrued Daily)",
        "nylim.shareClass.b.serviceValue": "B",
        "nylim.yes": "Yes",
        "nylim.equity": "Equity",
        "nylim.assetClass.equity.filterLabel": "Equities",
        "nylim.minimumSubsequentInvestment": "Minimum Subsequent Investment",
        "nylim.shareClass.r6.serviceValue": "R6",
        "nylim.calendarYearReturns": "Calendar Year Returns (%)",
        "nylim.annually": "Annually",
        "nylim.funds": "funds",
        "nylim.assetClass.alternative.rowLabel": "Alternatives",
        "nylim.assetClass.fixedIncome.rowLabel": "Fixed Income",
        "nylim.topStates": "Top States (%)",
        "nylim.productType.etf.filterLabel": "ETFs",
        "nylim.atNavUpperCase": "At NAV",
        "nylim.dividend": "Dividend",
        "nylim.assetClass.multiasset.filterLabel": "Multi-Asset",
        "nylim.nav": "NAV",
        "nylim.shareClass.r6.rowLabel": "R6",
        "nylim.creditQualityBreakdown": "Credit Quality Breakdown (%)",
        "nylim.5Y": "5Y",
        "nylim.marketPrice": "Market Price",
        "nylim.cusip": "CUSIP",
        "nylim.asOf": "As of ",
        "nylim.shareClass.r3.filterLabel": "Class R3",
        "nylim.shareClass.r1.filterLabel": "Class R1",
        "nylim.shareClass": "Share Class",
        "nylim.productType.mutualFund.serviceValue": "Mutual Fund",
        "nylim.productType.mutualFund.rowLabel": "MF",
        "nylim.managementFee": "Management Fee",
        "nylim.name": "Name",
        "nylim.assetClass.fixedIncome.label": "Fixed Income",
        "nylim.long": "Long",
        "nylim.productType.etf.label": "ETF",
        "nylim.1DayChange": "1 Day Change",
        "nylim.totalAnnualFundExpensesAfterWaiver": "Total Annual Fund Operating Expenses After Waiver / Reimbursement",
        "nylim.newInvestors": "New Investors",
        "nylim.shareClass.r3.serviceValue": "R3",
        "nylim.shareClass.a.rowLabel": "A",
        "nylim.productType.mutualFund.filterLabel": "Mutual Funds",
        "nylim.3Y": "3Y",
        "nylim.productType.closedEndFund.filterLabel": "Closed-End Fund",
        "nylim.shareClass.i.filterLabel": "Class I",
        "nylim.shareClass.c.serviceValue": "C"
    }
}
