{
    "productDetailLabels": {
        "nylim.morningstarRating": "Morningstar Rating",
        "nylim.riskReturn": "(Risk Adjusted Returns)",
        "nylim.asOf": "As of",
        "nylim.starRating": "Star Rating",
        "nylim.numberOfFunds": "Number Of Funds",
        "nylim.category": "Category",
        "nylim.overall": "Overall",
        "nylim.3Y": "3Y",
        "nylim.5Y": "5Y",
        "nylim.10Y": "10Y",
        "nylim.dataNotAvailableMessage": "No results are available at this time",
        "nylim.productType.etf.serviceValue": "ETF",
        "nylim.productType.mutualFund.serviceValue": "Mutual Fund",
        "nylim.productType.closedEndFund.serviceValue": "Closed End Fund"
    }
}
