<?xml version="1.0" encoding="UTF-8"?>
<svg width="26px" height="26px" viewBox="0 0 26 26" version="1.1" xmlns="http://www.w3.org/2000/svg" xmlns:xlink="http://www.w3.org/1999/xlink">
    <!-- Generator: Sketch 63.1 (92452) - https://sketch.com -->
    <title>icon</title>
    <desc>Created with Sketch.</desc>
    <g id="Retirement-Savings-Calculator---Desktop" stroke="none" stroke-width="1" fill="none" fill-rule="evenodd">
        <g id="7481-049_NYL_Desktop_Pi4-Retirement-Savings-Calculator-Results_v2" transform="translate(-802.000000, -290.000000)">
            <g id="02_Results" transform="translate(466.000000, 286.000000)">
                <g id="More-needed-per-year" transform="translate(298.000000, 0.000000)">
                    <g id="icon" transform="translate(36.000000, 2.000000)">
                        <polygon id="Path" points="0 0 30 0 30 30 0 30"></polygon>
                        <path d="M15,2.5 C8.1,2.5 2.5,8.1 2.5,15 C2.5,21.9 8.1,27.5 15,27.5 C21.9,27.5 27.5,21.9 27.5,15 C27.5,8.1 21.9,2.5 15,2.5 Z M16.7625,22.6125 L16.7625,23.3375 C16.7625,24.25 16.0125,25 15.1,25 L15.0875,25 C14.175,25 13.425,24.25 13.425,23.3375 L13.425,22.5875 C11.7625,22.2375 10.2875,21.325 9.6625,19.7875 C9.375,19.1 9.9125,18.3375 10.6625,18.3375 L10.9625,18.3375 C11.425,18.3375 11.8,18.65 11.975,19.0875 C12.3375,20.025 13.2875,20.675 15.1125,20.675 C17.5625,20.675 18.1125,19.45 18.1125,18.6875 C18.1125,17.65 17.5625,16.675 14.775,16.0125 C11.675,15.2625 9.55,13.9875 9.55,11.425 C9.55,9.275 11.2875,7.875 13.4375,7.4125 L13.4375,6.6625 C13.4375,5.75 14.1875,5 15.1,5 L15.1125,5 C16.025,5 16.775,5.75 16.775,6.6625 L16.775,7.4375 C18.5,7.8625 19.5875,8.9375 20.0625,10.2625 C20.3125,10.95 19.7875,11.675 19.05,11.675 L18.725,11.675 C18.2625,11.675 17.8875,11.35 17.7625,10.9 C17.475,9.95 16.6875,9.3375 15.1125,9.3375 C13.2375,9.3375 12.1125,10.1875 12.1125,11.3875 C12.1125,12.4375 12.925,13.125 15.45,13.775 C17.975,14.425 20.675,15.5125 20.675,18.6625 C20.65,20.95 18.9375,22.2 16.7625,22.6125 L16.7625,22.6125 Z" id="Shape" fill="#205F7C" fill-rule="nonzero"></path>
                    </g>
                </g>
            </g>
        </g>
    </g>
</svg>