<?xml version="1.0" encoding="UTF-8"?>
<svg width="21px" height="21px" viewBox="0 0 21 21" version="1.1" xmlns="http://www.w3.org/2000/svg" xmlns:xlink="http://www.w3.org/1999/xlink">
    <title>6AFDA115-8BF3-4A64-AB53-66A25B53F94E</title>
    <g id="Product-Tiles" stroke="none" stroke-width="1" fill="none" fill-rule="evenodd">
        <g id="Featured-Products---Updates" transform="translate(-535.000000, -2447.000000)">
            <g id="INSIGHTS-Copy-2" transform="translate(140.000000, 2307.000000)">
                <g id="Tile_Desktop_Simple-2" transform="translate(166.000000, 116.000000)">
                    <g id="Icons/System/Star" transform="translate(229.000000, 24.000000)">
                        <rect id="boundry" x="0" y="0" width="21" height="21"></rect>
                        <polygon id="Path-11" fill="#0A3C53" points="10.4947133 1.75 8.54539792 8.55327339 1.75 8.55327339 7.16205882 12.4661349 4.67337902 19.25 10.5 14.8389517 16.3006032 19.25 13.8949665 12.4661349 19.25 8.55327339 12.4561465 8.55327339"></polygon>
                    </g>
                </g>
            </g>
        </g>
    </g>
</svg>