<?xml version="1.0" encoding="UTF-8"?>
<svg width="18px" height="10px" viewBox="0 0 18 10" version="1.1" xmlns="http://www.w3.org/2000/svg" xmlns:xlink="http://www.w3.org/1999/xlink">
    <!-- Generator: sketchtool 59.1 (101010) - https://sketch.com -->
    <title>A6B2FCBE-68B3-471F-8085-851C64C0BC7C</title>
    <desc>Created with sketchtool.</desc>
    <defs>
        <polygon id="path-1" points="3 7 12 17 21 7"></polygon>
    </defs>
    <g id="Iconography" stroke="none" stroke-width="1" fill="none" fill-rule="evenodd">
        <g id="Icons/System/Arrow-3-Up" transform="translate(-3.000000, -7.000000)">
            <mask id="mask-2" fill="white">
                <use xlink:href="#path-1"></use>
            </mask>
            <use id="Path" fill="#0A3C53" transform="translate(12.000000, 12.000000) rotate(-180.000000) translate(-12.000000, -12.000000) " xlink:href="#path-1"></use>
        </g>
    </g>
</svg>