<?xml version="1.0" encoding="UTF-8"?>
<svg width="22px" height="22px" viewBox="0 0 22 22" version="1.1" xmlns="http://www.w3.org/2000/svg" xmlns:xlink="http://www.w3.org/1999/xlink">
    <!-- Generator: sketchtool 59.1 (101010) - https://sketch.com -->
    <title>41D5BAE9-E373-4B04-845F-11A0C69A90F2</title>
    <desc>Created with sketchtool.</desc>
    <g id="Iconography" stroke="none" stroke-width="1" fill="none" fill-rule="evenodd">
        <g id="Icons/Morningstar/Style/Large-Growth" transform="translate(-1.000000, -1.000000)" fill="#FFFFFF">
            <path d="M23,23 L1,23 L1,1 L23,1 L23,23 Z M8,16 L2,16 L2,22 L8,22 L8,16 Z M15,16 L9,16 L9,22 L15,22 L15,16 Z M22,16 L16,16 L16,22 L22,22 L22,16 Z M8,9 L2,9 L2,15 L8,15 L8,9 Z M15,9 L9,9 L9,15 L15,15 L15,9 Z M22,9 L16,9 L16,15 L22,15 L22,9 Z M8,2 L2,2 L2,8 L8,8 L8,2 Z M15,2 L9,2 L9,8 L15,8 L15,2 Z M22,2 L16,2 L16,8 L22,8 L22,2 Z M16,2 L22,2 L22,8 L16,8 L16,2 Z" id="Combined-Shape"></path>
        </g>
    </g>
</svg>