<svg xmlns="http://www.w3.org/2000/svg" width="18" height="14">
    <g fill="none">
        <path fill="#000" d="M0 6h17v2H0z"/>
        <path stroke="#000" stroke-width="2" d="M11 1.343L16.657 7 11 12.657"/>
    </g>
</svg>