<svg xmlns="http://www.w3.org/2000/svg" viewBox="0 0 27 34"  width="27" height="34">
    <path d="M21.413 11.594a5.37 5.37 0 0 0 5.383-5.38 5.37 5.37 0 0 0-5.383-5.38 5.37 5.37 0 0 0-5.383 5.38c0 .87.207 1.738.62 2.442l-7.578 4.842c-.952-.828-2.195-1.366-3.56-1.366a5.37 5.37 0 0 0-5.383 5.38 5.37 5.37 0 0 0 5.383 5.38c1.366 0 2.61-.538 3.56-1.366l7.33 4.718c-.248.62-.414 1.324-.414 2.028a5.37 5.37 0 0 0 5.383 5.38 5.37 5.37 0 1 0 0-10.761 5.29 5.29 0 0 0-3.52 1.324l-7.33-4.718c.248-.62.373-1.283.373-1.987s-.124-1.366-.373-1.987l7.743-4.967c.87.662 1.946 1.035 3.147 1.035zm0-8.278a2.88 2.88 0 0 1 2.899 2.897 2.88 2.88 0 0 1-2.899 2.897 2.88 2.88 0 0 1-2.899-2.897 2.88 2.88 0 0 1 2.899-2.897zM5.512 20.4a2.88 2.88 0 0 1-2.899-2.897 2.88 2.88 0 0 1 2.899-2.897 2.88 2.88 0 0 1 2.899 2.897 2.88 2.88 0 0 1-2.899 2.897zm15.9 5.008a2.88 2.88 0 0 1 2.899 2.897 2.88 2.88 0 0 1-2.899 2.897 2.88 2.88 0 0 1-2.899-2.897 2.88 2.88 0 0 1 2.899-2.897z" fill="#0a3c53" fill-rule="evenodd"/>
</svg>
