<?xml version="1.0" encoding="UTF-8"?>
<svg width="17px" height="16px" viewBox="0 0 17 16" version="1.1" xmlns="http://www.w3.org/2000/svg" xmlns:xlink="http://www.w3.org/1999/xlink">
    <!-- Generator: Sketch 63.1 (92452) - https://sketch.com -->
    <title>icon</title>
    <desc>Created with Sketch.</desc>
    <g id="LTC-Cost-Of-Care---Desktop" stroke="none" stroke-width="1" fill="none" fill-rule="evenodd">
        <g id="NYL_Desktop_LTC_Cost-of-Care_Landing_Results-Monthly" transform="translate(-164.000000, -711.000000)" stroke="#0A3C53">
            <g id="04_Calculator-Tools" transform="translate(165.000000, 645.000000)">
                <g id="Location" transform="translate(0.000000, 56.000000)">
                    <g id="icon" transform="translate(0.000000, 11.000000)">
                        <path d="M9.12861085,13.4482759 L9.94382174,13.4482759 L12.3894544,13.4482759 C12.8378204,13.4482759 13.2046653,13.0849181 13.2046653,12.6408141 L13.2046653,6.98858166 L14.5905238,6.98858166 C14.9655208,6.98858166 15.1448672,6.52832845 14.8595434,6.28608992 L8.04438037,0.205902753 C7.73460023,-0.0686342509 7.26177792,-0.0686342509 6.95199778,0.205902753 L0.136834757,6.28608992 C-0.140336945,6.52832845 0.0308573415,6.98858166 0.40585435,6.98858166 L1.79171286,6.98858166 L1.79171286,12.6408141 C1.79171286,13.0849181 2.15855776,13.4482759 2.60692375,13.4482759 C3.50350744,13.4482759 4.17594521,13.4482759 4.62423706,13.4482759 C4.71941914,13.4482759 4.86219226,13.4482759 5.05255641,13.4482759 L9.12861085,13.4482759 Z" stroke-width="1.3"></path>
                        <polyline id="Path-4" points="5.5 13.5 5.5 7 9.5 7 9.5 13.5"></polyline>
                    </g>
                </g>
            </g>
        </g>
    </g>
</svg>