{
    "data": [
        {
            "productUnitValueCd": "CE2",
            "accountUnitValueNo": "SepAcct1",
            "fundUnitvalueNm": "MainStay VP MacKay Growth - Initial Class",
            "currentAccumulatedUvNm": "38.689616",
            "priorAccumlatedUvNm": "-38.57345",
            "ytdRateNm": "27.15",
            "currAccumulatedUvDt": "12/10/2020",
            "priorAccumulatedUvDt": "12/09/2020",
            "changeFromPrevDayNm": "0.116164",
            "oneDayReturn": "0.30",
            "agentCh": "Y",
            "tpdCh": "N"
        },
        {
            "productUnitValueCd": "CE2",
            "accountUnitValueNo": "SepAcct1",
            "fundUnitvalueNm": "DWS Global Small Cap VIP - Class A",
            "currentAccumulatedUvNm": "20.738789",
            "priorAccumlatedUvNm": "20.62987",
            "ytdRateNm": "12.26",
            "currAccumulatedUvDt": "12/10/2020",
            "priorAccumulatedUvDt": "12/09/2020",
            "changeFromPrevDayNm": "0.108916",
            "oneDayReturn": "0.53",
            "agentCh": "Y",
            "tpdCh": "N"
        },
        {
            "productUnitValueCd": "CE2",
            "accountUnitValueNo": "SepAcct1",
            "fundUnitvalueNm": "Janus Henderson Enterprise Portfolio - Institutional Shares",
            "currentAccumulatedUvNm": "45.718572",
            "priorAccumlatedUvNm": "45.62389",
            "ytdRateNm": "15.69",
            "currAccumulatedUvDt": "12/10/2020",
            "priorAccumulatedUvDt": "12/09/2020",
            "changeFromPrevDayNm": "0.094686",
            "oneDayReturn": "0.21",
            "agentCh": "Y",
            "tpdCh": "N"
        },
        {
            "productUnitValueCd": "CE2",
            "accountUnitValueNo": "SepAcct1",
            "fundUnitvalueNm": "Neuberger Berman AMT Sustainable Equity Portfolio - Class I",
            "currentAccumulatedUvNm": "12.662644",
            "priorAccumlatedUvNm": "12.72641",
            "ytdRateNm": "15.94",
            "currAccumulatedUvDt": "12/10/2020",
            "priorAccumulatedUvDt": "12/09/2020",
            "changeFromPrevDayNm": "-0.063761",
            "oneDayReturn": "-0.50",
            "agentCh": "Y",
            "tpdCh": "N"
        },
        {
            "productUnitValueCd": "CE2",
            "accountUnitValueNo": "SepAcct1",
            "fundUnitvalueNm": "AB VPS Growth and Income Portfolio-Class A",
            "currentAccumulatedUvNm": "12.617851",
            "priorAccumlatedUvNm": "12.64434",
            "ytdRateNm": "26.18",
            "currAccumulatedUvDt": "12/10/2020",
            "priorAccumulatedUvDt": "12/09/2020",
            "changeFromPrevDayNm": "-0.026493",
            "oneDayReturn": "-0.21",
            "agentCh": "Y",
            "tpdCh": "N"
        },
        {
            "productUnitValueCd": "CE2",
            "accountUnitValueNo": "SepAcct1",
            "fundUnitvalueNm": "Fidelity VIP Investment Grade Bond Portfolio-Initial Class",
            "currentAccumulatedUvNm": "23.319078",
            "priorAccumlatedUvNm": "23.26934",
            "ytdRateNm": "8.60",
            "currAccumulatedUvDt": "12/10/2020",
            "priorAccumulatedUvDt": "12/09/2020",
            "changeFromPrevDayNm": "0.049740",
            "oneDayReturn": "0.21",
            "agentCh": "Y",
            "tpdCh": "N"
        },
        {
            "productUnitValueCd": "CE2",
            "accountUnitValueNo": "SepAcct1",
            "fundUnitvalueNm": "Thrivent Mid Cap Index Portfolio",
            "currentAccumulatedUvNm": "14.214133",
            "priorAccumlatedUvNm": "14.17663",
            "ytdRateNm": "42.14",
            "currAccumulatedUvDt": "12/10/2020",
            "priorAccumulatedUvDt": "12/09/2020",
            "changeFromPrevDayNm": "0.037499",
            "oneDayReturn": "0.27",
            "agentCh": "Y",
            "tpdCh": "N"
        },
        {
            "productUnitValueCd": "CE2",
            "accountUnitValueNo": "SepAcct1",
            "fundUnitvalueNm": "MainStay VP Mellon Natural Resources  - Initial Class",
            "currentAccumulatedUvNm": "7.233613",
            "priorAccumlatedUvNm": "7.11484",
            "ytdRateNm": "6.33",
            "currAccumulatedUvDt": "12/10/2020",
            "priorAccumulatedUvDt": "12/09/2020",
            "changeFromPrevDayNm": "0.118772",
            "oneDayReturn": "1.67",
            "agentCh": "Y",
            "tpdCh": "N"
        },
        {
            "productUnitValueCd": "CE2",
            "accountUnitValueNo": "SepAcct1",
            "fundUnitvalueNm": "MainStay VP US Govt MoneyMkt - Int Class",
            "currentAccumulatedUvNm": "1.172851",
            "priorAccumlatedUvNm": "1.17286",
            "ytdRateNm": "-.01",
            "currAccumulatedUvDt": "12/10/2020",
            "priorAccumulatedUvDt": "12/09/2020",
            "changeFromPrevDayNm": "-0.000008",
            "oneDayReturn": "0.00",
            "agentCh": "Y",
            "tpdCh": "N"
        },
        {
            "productUnitValueCd": "CE2",
            "accountUnitValueNo": "SepAcct1",
            "fundUnitvalueNm": "Lord Abbett Series Fund - Dev Growth Portfolio - Cls VC",
            "currentAccumulatedUvNm": "26.112069",
            "priorAccumlatedUvNm": "25.51612",
            "ytdRateNm": "63.81",
            "currAccumulatedUvDt": "12/10/2020",
            "priorAccumulatedUvDt": "12/09/2020",
            "changeFromPrevDayNm": "0.595947",
            "oneDayReturn": "2.34",
            "agentCh": "Y",
            "tpdCh": "N"
        },
        {
            "productUnitValueCd": "CE2",
            "accountUnitValueNo": "SepAcct1",
            "fundUnitvalueNm": "American Funds IS Blue Chip Income and Growth Fund-Class 1",
            "currentAccumulatedUvNm": "12.260062",
            "priorAccumlatedUvNm": "12.29459",
            "ytdRateNm": "7.95",
            "currAccumulatedUvDt": "12/10/2020",
            "priorAccumulatedUvDt": "12/09/2020",
            "changeFromPrevDayNm": "-0.034523",
            "oneDayReturn": "-0.28",
            "agentCh": "Y",
            "tpdCh": "N"
        },
        {
            "productUnitValueCd": "CE2",
            "accountUnitValueNo": "SepAcct1",
            "fundUnitvalueNm": "T. Rowe Price International Stock Portfolio",
            "currentAccumulatedUvNm": "27.846245",
            "priorAccumlatedUvNm": "27.81446",
            "ytdRateNm": "11.26",
            "currAccumulatedUvDt": "12/10/2020",
            "priorAccumulatedUvDt": "12/09/2020",
            "changeFromPrevDayNm": "0.031781",
            "oneDayReturn": "0.11",
            "agentCh": "Y",
            "tpdCh": "N"
        },
        {
            "productUnitValueCd": "CE2",
            "accountUnitValueNo": "SepAcct1",
            "fundUnitvalueNm": "Amer Cent Invstmnts VP Value Fund - Class 2",
            "currentAccumulatedUvNm": "30.675019",
            "priorAccumlatedUvNm": "30.67523",
            "ytdRateNm": ".91",
            "currAccumulatedUvDt": "12/10/2020",
            "priorAccumulatedUvDt": "12/09/2020",
            "changeFromPrevDayNm": "-0.000210",
            "oneDayReturn": "0.00",
            "agentCh": "Y",
            "tpdCh": "N"
        },
        {
            "productUnitValueCd": "CE2",
            "accountUnitValueNo": "SepAcct1",
            "fundUnitvalueNm": "BNY Mellon VIF Opportunistic Small Cap Port - Initial Shares",
            "currentAccumulatedUvNm": "31.206197",
            "priorAccumlatedUvNm": "30.76376",
            "ytdRateNm": "15.47",
            "currAccumulatedUvDt": "12/10/2020",
            "priorAccumulatedUvDt": "12/09/2020",
            "changeFromPrevDayNm": "0.442434",
            "oneDayReturn": "1.44",
            "agentCh": "Y",
            "tpdCh": "N"
        },
        {
            "productUnitValueCd": "CE2",
            "accountUnitValueNo": "SepAcct1",
            "fundUnitvalueNm": "Victory RS International VIP Series-Class I",
            "currentAccumulatedUvNm": "12.850766",
            "priorAccumlatedUvNm": "12.82255",
            "ytdRateNm": "28.51",
            "currAccumulatedUvDt": "12/10/2020",
            "priorAccumulatedUvDt": "12/09/2020",
            "changeFromPrevDayNm": "0.028218",
            "oneDayReturn": "0.22",
            "agentCh": "Y",
            "tpdCh": "N"
        },
        {
            "productUnitValueCd": "CE2",
            "accountUnitValueNo": "SepAcct1",
            "fundUnitvalueNm": "TOPS Aggressive Growth ETF Portfolio - Class 2 Shares",
            "currentAccumulatedUvNm": "24.681567",
            "priorAccumlatedUvNm": "24.60546",
            "ytdRateNm": "10.11",
            "currAccumulatedUvDt": "12/10/2020",
            "priorAccumulatedUvDt": "12/09/2020",
            "changeFromPrevDayNm": "0.076104",
            "oneDayReturn": "0.31",
            "agentCh": "Y",
            "tpdCh": "N"
        },
        {
            "productUnitValueCd": "CE2",
            "accountUnitValueNo": "SepAcct1",
            "fundUnitvalueNm": "Fidelity VIP International Index Portfolio-Initial Class",
            "currentAccumulatedUvNm": "13.499386",
            "priorAccumlatedUvNm": "13.44980",
            "ytdRateNm": "34.99",
            "currAccumulatedUvDt": "12/10/2020",
            "priorAccumulatedUvDt": "12/09/2020",
            "changeFromPrevDayNm": "0.049584",
            "oneDayReturn": "0.37",
            "agentCh": "Y",
            "tpdCh": "N"
        },
        {
            "productUnitValueCd": "CE2",
            "accountUnitValueNo": "SepAcct1",
            "fundUnitvalueNm": "PIMCO VIT Total Return Portfolio - Administrative Class",
            "currentAccumulatedUvNm": "18.557434",
            "priorAccumlatedUvNm": "18.52454",
            "ytdRateNm": "7.98",
            "currAccumulatedUvDt": "12/10/2020",
            "priorAccumulatedUvDt": "12/09/2020",
            "changeFromPrevDayNm": "0.032897",
            "oneDayReturn": "0.18",
            "agentCh": "Y",
            "tpdCh": "N"
        },
        {
            "productUnitValueCd": "CE2",
            "accountUnitValueNo": "SepAcct1",
            "fundUnitvalueNm": "American Funds IS Growth Fund - Class 1",
            "currentAccumulatedUvNm": "25.784884",
            "priorAccumlatedUvNm": "25.58980",
            "ytdRateNm": "47.04",
            "currAccumulatedUvDt": "12/10/2020",
            "priorAccumulatedUvDt": "12/09/2020",
            "changeFromPrevDayNm": "0.195083",
            "oneDayReturn": "0.76",
            "agentCh": "Y",
            "tpdCh": "N"
        },
        {
            "productUnitValueCd": "CE2",
            "accountUnitValueNo": "SepAcct1",
            "fundUnitvalueNm": "T. Rowe Price Limited-Term Bond Portfolio",
            "currentAccumulatedUvNm": "15.427776",
            "priorAccumlatedUvNm": "15.42720",
            "ytdRateNm": "4.35",
            "currAccumulatedUvDt": "12/10/2020",
            "priorAccumulatedUvDt": "12/09/2020",
            "changeFromPrevDayNm": "0.000575",
            "oneDayReturn": "0.00",
            "agentCh": "Y",
            "tpdCh": "N"
        },
        {
            "productUnitValueCd": "CE2",
            "accountUnitValueNo": "SepAcct1",
            "fundUnitvalueNm": "MainStay VP Small Cap Growth - Initial Class",
            "currentAccumulatedUvNm": "27.072405",
            "priorAccumlatedUvNm": "26.75781",
            "ytdRateNm": "33.37",
            "currAccumulatedUvDt": "12/10/2020",
            "priorAccumulatedUvDt": "12/09/2020",
            "changeFromPrevDayNm": "0.314600",
            "oneDayReturn": "1.18",
            "agentCh": "Y",
            "tpdCh": "N"
        },
        {
            "productUnitValueCd": "CE2",
            "accountUnitValueNo": "SepAcct1",
            "fundUnitvalueNm": "LVIP SSgA Developed International 150 Fund",
            "currentAccumulatedUvNm": "15.648157",
            "priorAccumlatedUvNm": "15.67893",
            "ytdRateNm": "-5.47",
            "currAccumulatedUvDt": "12/10/2020",
            "priorAccumulatedUvDt": "12/09/2020",
            "changeFromPrevDayNm": "-0.030773",
            "oneDayReturn": "-0.20",
            "agentCh": "Y",
            "tpdCh": "N"
        },
        {
            "productUnitValueCd": "CE2",
            "accountUnitValueNo": "SepAcct1",
            "fundUnitvalueNm": "PIMCO VIT High Yield Portfolio - Administrative Class",
            "currentAccumulatedUvNm": "18.836366",
            "priorAccumlatedUvNm": "18.83425",
            "ytdRateNm": "4.68",
            "currAccumulatedUvDt": "12/10/2020",
            "priorAccumulatedUvDt": "12/09/2020",
            "changeFromPrevDayNm": "0.002114",
            "oneDayReturn": "0.01",
            "agentCh": "Y",
            "tpdCh": "N"
        },
        {
            "productUnitValueCd": "CE2",
            "accountUnitValueNo": "SepAcct1",
            "fundUnitvalueNm": "Fidelity VIP Int Cap Appreciation Portfolio-Initial Cls",
            "currentAccumulatedUvNm": "13.538373",
            "priorAccumlatedUvNm": "13.48375",
            "ytdRateNm": "35.38",
            "currAccumulatedUvDt": "12/10/2020",
            "priorAccumulatedUvDt": "12/09/2020",
            "changeFromPrevDayNm": "0.054621",
            "oneDayReturn": "0.41",
            "agentCh": "Y",
            "tpdCh": "N"
        },
        {
            "productUnitValueCd": "CE2",
            "accountUnitValueNo": "SepAcct1",
            "fundUnitvalueNm": "Fidelity VIP Mid Cap Portfolio - Initial Class",
            "currentAccumulatedUvNm": "57.595510",
            "priorAccumlatedUvNm": "57.45712",
            "ytdRateNm": "13.74",
            "currAccumulatedUvDt": "12/10/2020",
            "priorAccumulatedUvDt": "12/09/2020",
            "changeFromPrevDayNm": "0.138393",
            "oneDayReturn": "0.24",
            "agentCh": "Y",
            "tpdCh": "N"
        },
        {
            "productUnitValueCd": "CE2",
            "accountUnitValueNo": "SepAcct1",
            "fundUnitvalueNm": "Voya Small Company Portfolio - Class I",
            "currentAccumulatedUvNm": "16.010284",
            "priorAccumlatedUvNm": "15.93061",
            "ytdRateNm": "8.82",
            "currAccumulatedUvDt": "12/10/2020",
            "priorAccumulatedUvDt": "12/09/2020",
            "changeFromPrevDayNm": "0.079677",
            "oneDayReturn": "0.50",
            "agentCh": "Y",
            "tpdCh": "N"
        },
        {
            "productUnitValueCd": "CE2",
            "accountUnitValueNo": "SepAcct1",
            "fundUnitvalueNm": "Columbia Variable Portfolio-Disciplined Core Fund-Class 1",
            "currentAccumulatedUvNm": "12.546362",
            "priorAccumlatedUvNm": "12.54838",
            "ytdRateNm": "25.46",
            "currAccumulatedUvDt": "12/10/2020",
            "priorAccumulatedUvDt": "12/09/2020",
            "changeFromPrevDayNm": "-0.002022",
            "oneDayReturn": "-0.02",
            "agentCh": "Y",
            "tpdCh": "N"
        },
        {
            "productUnitValueCd": "CE2",
            "accountUnitValueNo": "SepAcct1",
            "fundUnitvalueNm": "Fidelity VIP Balanced Portfolio-Initial Class",
            "currentAccumulatedUvNm": "12.793912",
            "priorAccumlatedUvNm": "12.76582",
            "ytdRateNm": "27.94",
            "currAccumulatedUvDt": "12/10/2020",
            "priorAccumulatedUvDt": "12/09/2020",
            "changeFromPrevDayNm": "0.028093",
            "oneDayReturn": "0.22",
            "agentCh": "Y",
            "tpdCh": "N"
        },
        {
            "productUnitValueCd": "CE2",
            "accountUnitValueNo": "SepAcct1",
            "fundUnitvalueNm": "Delaware VIP Value Series-Standard Cls.",
            "currentAccumulatedUvNm": "12.405780",
            "priorAccumlatedUvNm": "12.49311",
            "ytdRateNm": "24.06",
            "currAccumulatedUvDt": "12/10/2020",
            "priorAccumulatedUvDt": "12/09/2020",
            "changeFromPrevDayNm": "-0.087328",
            "oneDayReturn": "-0.70",
            "agentCh": "Y",
            "tpdCh": "N"
        },
        {
            "productUnitValueCd": "CE2",
            "accountUnitValueNo": "SepAcct1",
            "fundUnitvalueNm": "Fidelity VIP Technology Portfolio-Initial Class",
            "currentAccumulatedUvNm": "15.857942",
            "priorAccumlatedUvNm": "15.75072",
            "ytdRateNm": "58.58",
            "currAccumulatedUvDt": "12/10/2020",
            "priorAccumulatedUvDt": "12/09/2020",
            "changeFromPrevDayNm": "0.107223",
            "oneDayReturn": "0.68",
            "agentCh": "Y",
            "tpdCh": "N"
        },
        {
            "productUnitValueCd": "CE2",
            "accountUnitValueNo": "SepAcct1",
            "fundUnitvalueNm": "MainStay VP MacKay Government - Initial Class",
            "currentAccumulatedUvNm": "14.512407",
            "priorAccumlatedUvNm": "14.50083",
            "ytdRateNm": "4.44",
            "currAccumulatedUvDt": "12/10/2020",
            "priorAccumulatedUvDt": "12/09/2020",
            "changeFromPrevDayNm": "0.011581",
            "oneDayReturn": "0.08",
            "agentCh": "Y",
            "tpdCh": "N"
        },
        {
            "productUnitValueCd": "CE2",
            "accountUnitValueNo": "SepAcct1",
            "fundUnitvalueNm": "Davis Value Portfolio",
            "currentAccumulatedUvNm": "29.508593",
            "priorAccumlatedUvNm": "29.47717",
            "ytdRateNm": "9.77",
            "currAccumulatedUvDt": "12/10/2020",
            "priorAccumulatedUvDt": "12/09/2020",
            "changeFromPrevDayNm": "0.031426",
            "oneDayReturn": "0.11",
            "agentCh": "Y",
            "tpdCh": "N"
        },
        {
            "productUnitValueCd": "CE2",
            "accountUnitValueNo": "SepAcct1",
            "fundUnitvalueNm": "Fidelity VIP Growth Opportunities Portfolio - Initial Class",
            "currentAccumulatedUvNm": "16.556688",
            "priorAccumlatedUvNm": "16.40584",
            "ytdRateNm": "65.57",
            "currAccumulatedUvDt": "12/10/2020",
            "priorAccumulatedUvDt": "12/09/2020",
            "changeFromPrevDayNm": "0.150848",
            "oneDayReturn": "0.92",
            "agentCh": "Y",
            "tpdCh": "N"
        },
        {
            "productUnitValueCd": "CE2",
            "accountUnitValueNo": "SepAcct1",
            "fundUnitvalueNm": "AB VPS International Value Portfolio - Class A",
            "currentAccumulatedUvNm": "12.287424",
            "priorAccumlatedUvNm": "12.29621",
            "ytdRateNm": "-.11",
            "currAccumulatedUvDt": "12/10/2020",
            "priorAccumulatedUvDt": "12/09/2020",
            "changeFromPrevDayNm": "-0.008786",
            "oneDayReturn": "-0.07",
            "agentCh": "Y",
            "tpdCh": "N"
        },
        {
            "productUnitValueCd": "CE2",
            "accountUnitValueNo": "SepAcct1",
            "fundUnitvalueNm": "Legg Mason Western Asset Core Plus VIT Portfolio - Cls I Shs",
            "currentAccumulatedUvNm": "10.831105",
            "priorAccumlatedUvNm": "10.79674",
            "ytdRateNm": "8.31",
            "currAccumulatedUvDt": "12/10/2020",
            "priorAccumulatedUvDt": "12/09/2020",
            "changeFromPrevDayNm": "0.034366",
            "oneDayReturn": "0.32",
            "agentCh": "Y",
            "tpdCh": "N"
        },
        {
            "productUnitValueCd": "CE2",
            "accountUnitValueNo": "SepAcct1",
            "fundUnitvalueNm": "MFS Mid Cap Growth Series-Initial Class",
            "currentAccumulatedUvNm": "14.007003",
            "priorAccumlatedUvNm": "13.85586",
            "ytdRateNm": "40.07",
            "currAccumulatedUvDt": "12/10/2020",
            "priorAccumulatedUvDt": "12/09/2020",
            "changeFromPrevDayNm": "0.151145",
            "oneDayReturn": "1.09",
            "agentCh": "Y",
            "tpdCh": "N"
        },
        {
            "productUnitValueCd": "CE2",
            "accountUnitValueNo": "SepAcct1",
            "fundUnitvalueNm": "TOPS Conservative ETF Portfolio - Class 2 Shares",
            "currentAccumulatedUvNm": "14.928431",
            "priorAccumlatedUvNm": "14.91676",
            "ytdRateNm": "5.87",
            "currAccumulatedUvDt": "12/10/2020",
            "priorAccumulatedUvDt": "12/09/2020",
            "changeFromPrevDayNm": "0.011671",
            "oneDayReturn": "0.08",
            "agentCh": "Y",
            "tpdCh": "N"
        },
        {
            "productUnitValueCd": "CE2",
            "accountUnitValueNo": "SepAcct1",
            "fundUnitvalueNm": "BNY Mellon IP Technology Growth Portfolio - Initial Shares",
            "currentAccumulatedUvNm": "61.019048",
            "priorAccumlatedUvNm": "60.25925",
            "ytdRateNm": "66.93",
            "currAccumulatedUvDt": "12/10/2020",
            "priorAccumulatedUvDt": "12/09/2020",
            "changeFromPrevDayNm": "0.759797",
            "oneDayReturn": "1.26",
            "agentCh": "Y",
            "tpdCh": "N"
        },
        {
            "productUnitValueCd": "CE2",
            "accountUnitValueNo": "SepAcct1",
            "fundUnitvalueNm": "Janus Henderson Forty Portfolio - Institutional Shares",
            "currentAccumulatedUvNm": "46.004481",
            "priorAccumlatedUvNm": "45.80379",
            "ytdRateNm": "34.02",
            "currAccumulatedUvDt": "12/10/2020",
            "priorAccumulatedUvDt": "12/09/2020",
            "changeFromPrevDayNm": "0.200691",
            "oneDayReturn": "0.44",
            "agentCh": "Y",
            "tpdCh": "N"
        },
        {
            "productUnitValueCd": "CE2",
            "accountUnitValueNo": "SepAcct1",
            "fundUnitvalueNm": "MFS VIT III Mid Cap Value - Initial Class",
            "currentAccumulatedUvNm": "14.069333",
            "priorAccumlatedUvNm": "14.06943",
            "ytdRateNm": "1.69",
            "currAccumulatedUvDt": "12/10/2020",
            "priorAccumulatedUvDt": "12/09/2020",
            "changeFromPrevDayNm": "-0.000096",
            "oneDayReturn": "0.00",
            "agentCh": "Y",
            "tpdCh": "N"
        },
        {
            "productUnitValueCd": "CE2",
            "accountUnitValueNo": "SepAcct1",
            "fundUnitvalueNm": "Voya Limited Maturity Bond Portfolio-Class I",
            "currentAccumulatedUvNm": "10.259929",
            "priorAccumlatedUvNm": "10.25938",
            "ytdRateNm": "2.60",
            "currAccumulatedUvDt": "12/10/2020",
            "priorAccumulatedUvDt": "12/09/2020",
            "changeFromPrevDayNm": "0.000553",
            "oneDayReturn": "0.01",
            "agentCh": "Y",
            "tpdCh": "N"
        },
        {
            "productUnitValueCd": "CE2",
            "accountUnitValueNo": "SepAcct1",
            "fundUnitvalueNm": "American Funds IS International Fund - Class 1",
            "currentAccumulatedUvNm": "15.717513",
            "priorAccumlatedUvNm": "15.58710",
            "ytdRateNm": "10.34",
            "currAccumulatedUvDt": "12/10/2020",
            "priorAccumulatedUvDt": "12/09/2020",
            "changeFromPrevDayNm": "0.130416",
            "oneDayReturn": "0.84",
            "agentCh": "Y",
            "tpdCh": "N"
        },
        {
            "productUnitValueCd": "CE2",
            "accountUnitValueNo": "SepAcct1",
            "fundUnitvalueNm": "TOPS Balanced ETF Portfolio - Class 2 Shares",
            "currentAccumulatedUvNm": "17.318464",
            "priorAccumlatedUvNm": "17.27901",
            "ytdRateNm": "6.92",
            "currAccumulatedUvDt": "12/10/2020",
            "priorAccumulatedUvDt": "12/09/2020",
            "changeFromPrevDayNm": "0.039452",
            "oneDayReturn": "0.23",
            "agentCh": "Y",
            "tpdCh": "N"
        },
        {
            "productUnitValueCd": "CE2",
            "accountUnitValueNo": "SepAcct1",
            "fundUnitvalueNm": "Janus Henderson Global Research Port - Institutional Shares",
            "currentAccumulatedUvNm": "28.081821",
            "priorAccumlatedUvNm": "28.07575",
            "ytdRateNm": "16.24",
            "currAccumulatedUvDt": "12/10/2020",
            "priorAccumulatedUvDt": "12/09/2020",
            "changeFromPrevDayNm": "0.006070",
            "oneDayReturn": "0.02",
            "agentCh": "Y",
            "tpdCh": "N"
        },
        {
            "productUnitValueCd": "CE2",
            "accountUnitValueNo": "SepAcct1",
            "fundUnitvalueNm": "MFS New Discovery Series - Initial Class",
            "currentAccumulatedUvNm": "44.690401",
            "priorAccumlatedUvNm": "43.93413",
            "ytdRateNm": "37.12",
            "currAccumulatedUvDt": "12/10/2020",
            "priorAccumulatedUvDt": "12/09/2020",
            "changeFromPrevDayNm": "0.756275",
            "oneDayReturn": "1.72",
            "agentCh": "Y",
            "tpdCh": "N"
        },
        {
            "productUnitValueCd": "CE2",
            "accountUnitValueNo": "SepAcct1",
            "fundUnitvalueNm": "Invesco V.I. International Growth Fund - Series I",
            "currentAccumulatedUvNm": "20.070660",
            "priorAccumlatedUvNm": "20.03684",
            "ytdRateNm": "10.68",
            "currAccumulatedUvDt": "12/10/2020",
            "priorAccumulatedUvDt": "12/09/2020",
            "changeFromPrevDayNm": "0.033816",
            "oneDayReturn": "0.17",
            "agentCh": "Y",
            "tpdCh": "N"
        },
        {
            "productUnitValueCd": "CE2",
            "accountUnitValueNo": "SepAcct1",
            "fundUnitvalueNm": "MainStay VP Bond - Initial Class",
            "currentAccumulatedUvNm": "14.995135",
            "priorAccumlatedUvNm": "14.95821",
            "ytdRateNm": "7.26",
            "currAccumulatedUvDt": "12/10/2020",
            "priorAccumulatedUvDt": "12/09/2020",
            "changeFromPrevDayNm": "0.036924",
            "oneDayReturn": "0.25",
            "agentCh": "Y",
            "tpdCh": "N"
        },
        {
            "productUnitValueCd": "CE2",
            "accountUnitValueNo": "SepAcct1",
            "fundUnitvalueNm": "Thrivent Diversified Income Plus Portfolio",
            "currentAccumulatedUvNm": "11.578524",
            "priorAccumlatedUvNm": "11.57054",
            "ytdRateNm": "15.79",
            "currAccumulatedUvDt": "12/10/2020",
            "priorAccumulatedUvDt": "12/09/2020",
            "changeFromPrevDayNm": "0.007980",
            "oneDayReturn": "0.07",
            "agentCh": "Y",
            "tpdCh": "N"
        },
        {
            "productUnitValueCd": "CE2",
            "accountUnitValueNo": "SepAcct1",
            "fundUnitvalueNm": "Fidelity VIP Equity-Income Portfolio (SM) - Initial Class",
            "currentAccumulatedUvNm": "36.967363",
            "priorAccumlatedUvNm": "36.96762",
            "ytdRateNm": "4.31",
            "currAccumulatedUvDt": "12/10/2020",
            "priorAccumulatedUvDt": "12/09/2020",
            "changeFromPrevDayNm": "-0.000253",
            "oneDayReturn": "0.00",
            "agentCh": "Y",
            "tpdCh": "N"
        },
        {
            "productUnitValueCd": "CE2",
            "accountUnitValueNo": "SepAcct1",
            "fundUnitvalueNm": "ClearBridge Variable Large Cap Growth Portfolio- Class I",
            "currentAccumulatedUvNm": "19.000909",
            "priorAccumlatedUvNm": "19.03118",
            "ytdRateNm": "26.48",
            "currAccumulatedUvDt": "12/10/2020",
            "priorAccumulatedUvDt": "12/09/2020",
            "changeFromPrevDayNm": "-0.030266",
            "oneDayReturn": "-0.16",
            "agentCh": "Y",
            "tpdCh": "N"
        },
        {
            "productUnitValueCd": "CE2",
            "accountUnitValueNo": "SepAcct1",
            "fundUnitvalueNm": "Fidelity VIP Extended Market Index Portfolio-Initial Class",
            "currentAccumulatedUvNm": "14.983316",
            "priorAccumlatedUvNm": "14.85029",
            "ytdRateNm": "49.83",
            "currAccumulatedUvDt": "12/10/2020",
            "priorAccumulatedUvDt": "12/09/2020",
            "changeFromPrevDayNm": "0.133031",
            "oneDayReturn": "0.90",
            "agentCh": "Y",
            "tpdCh": "N"
        },
        {
            "productUnitValueCd": "CE2",
            "accountUnitValueNo": "SepAcct1",
            "fundUnitvalueNm": "Morgan Stanley VIF Emerging Market Debt Portfolio Class I",
            "currentAccumulatedUvNm": "24.759958",
            "priorAccumlatedUvNm": "24.76013",
            "ytdRateNm": "4.34",
            "currAccumulatedUvDt": "12/10/2020",
            "priorAccumulatedUvDt": "12/09/2020",
            "changeFromPrevDayNm": "-0.000169",
            "oneDayReturn": "0.00",
            "agentCh": "Y",
            "tpdCh": "N"
        },
        {
            "productUnitValueCd": "CE2",
            "accountUnitValueNo": "SepAcct1",
            "fundUnitvalueNm": "LVIP Baron Growth Opportunities Fund - Service Class",
            "currentAccumulatedUvNm": "36.952778",
            "priorAccumlatedUvNm": "36.67902",
            "ytdRateNm": "28.92",
            "currAccumulatedUvDt": "12/10/2020",
            "priorAccumulatedUvDt": "12/09/2020",
            "changeFromPrevDayNm": "0.273763",
            "oneDayReturn": "0.75",
            "agentCh": "Y",
            "tpdCh": "N"
        },
        {
            "productUnitValueCd": "CE2",
            "accountUnitValueNo": "SepAcct1",
            "fundUnitvalueNm": "MainStay VP MacKay Mid Cap Core - Initial Class",
            "currentAccumulatedUvNm": "58.394672",
            "priorAccumlatedUvNm": "58.14281",
            "ytdRateNm": "7.88",
            "currAccumulatedUvDt": "12/10/2020",
            "priorAccumulatedUvDt": "12/09/2020",
            "changeFromPrevDayNm": "0.251862",
            "oneDayReturn": "0.43",
            "agentCh": "Y",
            "tpdCh": "N"
        },
        {
            "productUnitValueCd": "CE2",
            "accountUnitValueNo": "SepAcct1",
            "fundUnitvalueNm": "VY JPMorgan Mid Cap Value Portfolio-Class I",
            "currentAccumulatedUvNm": "13.401827",
            "priorAccumlatedUvNm": "13.41022",
            "ytdRateNm": "34.02",
            "currAccumulatedUvDt": "12/10/2020",
            "priorAccumulatedUvDt": "12/09/2020",
            "changeFromPrevDayNm": "-0.008390",
            "oneDayReturn": "-0.06",
            "agentCh": "Y",
            "tpdCh": "N"
        },
        {
            "productUnitValueCd": "CE2",
            "accountUnitValueNo": "SepAcct1",
            "fundUnitvalueNm": "PIMCO VIT Real Return Portfolio - Administrative Class",
            "currentAccumulatedUvNm": "18.664987",
            "priorAccumlatedUvNm": "18.63786",
            "ytdRateNm": "10.46",
            "currAccumulatedUvDt": "12/10/2020",
            "priorAccumulatedUvDt": "12/09/2020",
            "changeFromPrevDayNm": "0.027125",
            "oneDayReturn": "0.15",
            "agentCh": "Y",
            "tpdCh": "N"
        },
        {
            "productUnitValueCd": "CE2",
            "accountUnitValueNo": "SepAcct1",
            "fundUnitvalueNm": "AB VPS Large Cap Growth Portfolio-Class A",
            "currentAccumulatedUvNm": "13.302452",
            "priorAccumlatedUvNm": "13.30791",
            "ytdRateNm": "33.03",
            "currAccumulatedUvDt": "12/10/2020",
            "priorAccumulatedUvDt": "12/09/2020",
            "changeFromPrevDayNm": "-0.005457",
            "oneDayReturn": "-0.04",
            "agentCh": "Y",
            "tpdCh": "N"
        },
        {
            "productUnitValueCd": "CE2",
            "accountUnitValueNo": "SepAcct1",
            "fundUnitvalueNm": "T. Rowe Price Blue Chip Growth Portfolio",
            "currentAccumulatedUvNm": "66.026445",
            "priorAccumlatedUvNm": "65.87208",
            "ytdRateNm": "30.99",
            "currAccumulatedUvDt": "12/10/2020",
            "priorAccumulatedUvDt": "12/09/2020",
            "changeFromPrevDayNm": "0.154361",
            "oneDayReturn": "0.23",
            "agentCh": "Y",
            "tpdCh": "N"
        },
        {
            "productUnitValueCd": "CE2",
            "accountUnitValueNo": "SepAcct1",
            "fundUnitvalueNm": "Delaware VIP REIT Series",
            "currentAccumulatedUvNm": "21.858271",
            "priorAccumlatedUvNm": "21.96957",
            "ytdRateNm": "-12.76",
            "currAccumulatedUvDt": "12/10/2020",
            "priorAccumulatedUvDt": "12/09/2020",
            "changeFromPrevDayNm": "-0.111295",
            "oneDayReturn": "-0.51",
            "agentCh": "N",
            "tpdCh": "N"
        },
        {
            "productUnitValueCd": "CE2",
            "accountUnitValueNo": "SepAcct1",
            "fundUnitvalueNm": "MainStay VP Floating Rate - Initial Class",
            "currentAccumulatedUvNm": "14.641668",
            "priorAccumlatedUvNm": "14.63451",
            "ytdRateNm": "1.72",
            "currAccumulatedUvDt": "12/10/2020",
            "priorAccumulatedUvDt": "12/09/2020",
            "changeFromPrevDayNm": "0.007163",
            "oneDayReturn": "0.05",
            "agentCh": "Y",
            "tpdCh": "N"
        },
        {
            "productUnitValueCd": "CE2",
            "accountUnitValueNo": "SepAcct1",
            "fundUnitvalueNm": "BlackRock Global Allocation V.I. Fund - Class I",
            "currentAccumulatedUvNm": "14.736962",
            "priorAccumlatedUvNm": "14.67817",
            "ytdRateNm": "17.87",
            "currAccumulatedUvDt": "12/10/2020",
            "priorAccumulatedUvDt": "12/09/2020",
            "changeFromPrevDayNm": "0.058789",
            "oneDayReturn": "0.40",
            "agentCh": "Y",
            "tpdCh": "N"
        },
        {
            "productUnitValueCd": "CE2",
            "accountUnitValueNo": "SepAcct1",
            "fundUnitvalueNm": "Neuberger Berman AMT M/C Intrinsic Value - Class I",
            "currentAccumulatedUvNm": "11.942349",
            "priorAccumlatedUvNm": "11.91050",
            "ytdRateNm": "-5.63",
            "currAccumulatedUvDt": "12/10/2020",
            "priorAccumulatedUvDt": "12/09/2020",
            "changeFromPrevDayNm": "0.031850",
            "oneDayReturn": "0.27",
            "agentCh": "Y",
            "tpdCh": "N"
        },
        {
            "productUnitValueCd": "CE2",
            "accountUnitValueNo": "SepAcct1",
            "fundUnitvalueNm": "PIMCO VIT Low Duration Portfolio - Administrative Class",
            "currentAccumulatedUvNm": "12.120132",
            "priorAccumlatedUvNm": "12.12000",
            "ytdRateNm": "2.61",
            "currAccumulatedUvDt": "12/10/2020",
            "priorAccumulatedUvDt": "12/09/2020",
            "changeFromPrevDayNm": "0.000134",
            "oneDayReturn": "0.00",
            "agentCh": "Y",
            "tpdCh": "N"
        },
        {
            "productUnitValueCd": "CE2",
            "accountUnitValueNo": "SepAcct1",
            "fundUnitvalueNm": "Voya Index Solution 2030 Portfolio-Class Z",
            "currentAccumulatedUvNm": "12.323216",
            "priorAccumlatedUvNm": "12.30233",
            "ytdRateNm": "23.23",
            "currAccumulatedUvDt": "12/10/2020",
            "priorAccumulatedUvDt": "12/09/2020",
            "changeFromPrevDayNm": "0.020886",
            "oneDayReturn": "0.17",
            "agentCh": "Y",
            "tpdCh": "N"
        },
        {
            "productUnitValueCd": "CE2",
            "accountUnitValueNo": "SepAcct1",
            "fundUnitvalueNm": "MFS New  Discovery Value Initial",
            "currentAccumulatedUvNm": "14.078231",
            "priorAccumlatedUvNm": "13.96440",
            "ytdRateNm": "40.78",
            "currAccumulatedUvDt": "12/10/2020",
            "priorAccumulatedUvDt": "12/09/2020",
            "changeFromPrevDayNm": "0.113833",
            "oneDayReturn": "0.82",
            "agentCh": "Y",
            "tpdCh": "N"
        },
        {
            "productUnitValueCd": "CE2",
            "accountUnitValueNo": "SepAcct1",
            "fundUnitvalueNm": "MainStay VP Janus Henderson Balanced - Initial Class",
            "currentAccumulatedUvNm": "22.747764",
            "priorAccumlatedUvNm": "22.77054",
            "ytdRateNm": "11.62",
            "currAccumulatedUvDt": "12/10/2020",
            "priorAccumulatedUvDt": "12/09/2020",
            "changeFromPrevDayNm": "-0.022773",
            "oneDayReturn": "-0.10",
            "agentCh": "Y",
            "tpdCh": "N"
        },
        {
            "productUnitValueCd": "CE2",
            "accountUnitValueNo": "SepAcct1",
            "fundUnitvalueNm": "Voya Index Solution 2040 Portfolio-Class Z",
            "currentAccumulatedUvNm": "12.953012",
            "priorAccumlatedUvNm": "12.93249",
            "ytdRateNm": "29.53",
            "currAccumulatedUvDt": "12/10/2020",
            "priorAccumulatedUvDt": "12/09/2020",
            "changeFromPrevDayNm": "0.020527",
            "oneDayReturn": "0.16",
            "agentCh": "Y",
            "tpdCh": "N"
        },
        {
            "productUnitValueCd": "CE2",
            "accountUnitValueNo": "SepAcct1",
            "fundUnitvalueNm": "LVIP SSgA International Index Fund - Standard Class",
            "currentAccumulatedUvNm": "16.662730",
            "priorAccumlatedUvNm": "16.61644",
            "ytdRateNm": "5.30",
            "currAccumulatedUvDt": "12/10/2020",
            "priorAccumulatedUvDt": "12/09/2020",
            "changeFromPrevDayNm": "0.046293",
            "oneDayReturn": "0.28",
            "agentCh": "Y",
            "tpdCh": "N"
        },
        {
            "productUnitValueCd": "CE2",
            "accountUnitValueNo": "SepAcct1",
            "fundUnitvalueNm": "Voya High Yield Portfolio-Class I",
            "currentAccumulatedUvNm": "11.476702",
            "priorAccumlatedUvNm": "11.47506",
            "ytdRateNm": "14.77",
            "currAccumulatedUvDt": "12/10/2020",
            "priorAccumulatedUvDt": "12/09/2020",
            "changeFromPrevDayNm": "0.001645",
            "oneDayReturn": "0.01",
            "agentCh": "Y",
            "tpdCh": "N"
        },
        {
            "productUnitValueCd": "CE2",
            "accountUnitValueNo": "SepAcct1",
            "fundUnitvalueNm": "Fidelity VIP Freedom 2020 Portfolio - Initial Class",
            "currentAccumulatedUvNm": "22.782715",
            "priorAccumlatedUvNm": "22.73731",
            "ytdRateNm": "12.83",
            "currAccumulatedUvDt": "12/10/2020",
            "priorAccumulatedUvDt": "12/09/2020",
            "changeFromPrevDayNm": "0.045410",
            "oneDayReturn": "0.20",
            "agentCh": "Y",
            "tpdCh": "N"
        },
        {
            "productUnitValueCd": "CE2",
            "accountUnitValueNo": "SepAcct1",
            "fundUnitvalueNm": "VY T. Rowe Price Capital Appreciation Portfolio-Class I",
            "currentAccumulatedUvNm": "12.260939",
            "priorAccumlatedUvNm": "12.28438",
            "ytdRateNm": "22.61",
            "currAccumulatedUvDt": "12/10/2020",
            "priorAccumulatedUvDt": "12/09/2020",
            "changeFromPrevDayNm": "-0.023438",
            "oneDayReturn": "-0.19",
            "agentCh": "Y",
            "tpdCh": "N"
        },
        {
            "productUnitValueCd": "CE2",
            "accountUnitValueNo": "SepAcct1",
            "fundUnitvalueNm": "DWS Small Mid Cap Value VIP - Class A",
            "currentAccumulatedUvNm": "20.801589",
            "priorAccumlatedUvNm": "20.65974",
            "ytdRateNm": "-3.34",
            "currAccumulatedUvDt": "12/10/2020",
            "priorAccumulatedUvDt": "12/09/2020",
            "changeFromPrevDayNm": "0.141850",
            "oneDayReturn": "0.69",
            "agentCh": "Y",
            "tpdCh": "N"
        },
        {
            "productUnitValueCd": "CE2",
            "accountUnitValueNo": "SepAcct1",
            "fundUnitvalueNm": "Thrivent Aggressive Allocation Portfolio",
            "currentAccumulatedUvNm": "13.545008",
            "priorAccumlatedUvNm": "13.51257",
            "ytdRateNm": "35.45",
            "currAccumulatedUvDt": "12/10/2020",
            "priorAccumulatedUvDt": "12/09/2020",
            "changeFromPrevDayNm": "0.032438",
            "oneDayReturn": "0.24",
            "agentCh": "Y",
            "tpdCh": "N"
        },
        {
            "productUnitValueCd": "CE2",
            "accountUnitValueNo": "SepAcct1",
            "fundUnitvalueNm": "MFS Global Real Estate - Initial Class",
            "currentAccumulatedUvNm": "14.799832",
            "priorAccumlatedUvNm": "14.79993",
            "ytdRateNm": "-1.46",
            "currAccumulatedUvDt": "12/10/2020",
            "priorAccumulatedUvDt": "12/09/2020",
            "changeFromPrevDayNm": "-0.000101",
            "oneDayReturn": "0.00",
            "agentCh": "Y",
            "tpdCh": "N"
        },
        {
            "productUnitValueCd": "CE2",
            "accountUnitValueNo": "SepAcct1",
            "fundUnitvalueNm": "Invesco V.I. Mid Cap Core Equity Fund - Series I",
            "currentAccumulatedUvNm": "21.623951",
            "priorAccumlatedUvNm": "21.58219",
            "ytdRateNm": "6.41",
            "currAccumulatedUvDt": "12/10/2020",
            "priorAccumulatedUvDt": "12/09/2020",
            "changeFromPrevDayNm": "0.041760",
            "oneDayReturn": "0.19",
            "agentCh": "Y",
            "tpdCh": "N"
        },
        {
            "productUnitValueCd": "CE2",
            "accountUnitValueNo": "SepAcct1",
            "fundUnitvalueNm": "T. Rowe Price Equity Index 500 Portfolio",
            "currentAccumulatedUvNm": "36.013697",
            "priorAccumlatedUvNm": "36.05528",
            "ytdRateNm": "14.95",
            "currAccumulatedUvDt": "12/10/2020",
            "priorAccumulatedUvDt": "12/09/2020",
            "changeFromPrevDayNm": "-0.041578",
            "oneDayReturn": "-0.12",
            "agentCh": "Y",
            "tpdCh": "N"
        },
        {
            "productUnitValueCd": "CE2",
            "accountUnitValueNo": "SepAcct1",
            "fundUnitvalueNm": "DWS Small Cap Index VIP - Class A",
            "currentAccumulatedUvNm": "29.158211",
            "priorAccumlatedUvNm": "28.84821",
            "ytdRateNm": "15.93",
            "currAccumulatedUvDt": "12/10/2020",
            "priorAccumulatedUvDt": "12/09/2020",
            "changeFromPrevDayNm": "0.309999",
            "oneDayReturn": "1.08",
            "agentCh": "Y",
            "tpdCh": "N"
        },
        {
            "productUnitValueCd": "CE2",
            "accountUnitValueNo": "SepAcct1",
            "fundUnitvalueNm": "Janus Henderson Flexible Bond Port - Institutional Shares",
            "currentAccumulatedUvNm": "12.450999",
            "priorAccumlatedUvNm": "12.42392",
            "ytdRateNm": "9.62",
            "currAccumulatedUvDt": "12/10/2020",
            "priorAccumulatedUvDt": "12/09/2020",
            "changeFromPrevDayNm": "0.027083",
            "oneDayReturn": "0.22",
            "agentCh": "Y",
            "tpdCh": "N"
        },
        {
            "productUnitValueCd": "CE2",
            "accountUnitValueNo": "SepAcct1",
            "fundUnitvalueNm": "TOPS Growth ETF Portfolio - Class 2 Shares",
            "currentAccumulatedUvNm": "22.396904",
            "priorAccumlatedUvNm": "22.32802",
            "ytdRateNm": "9.38",
            "currAccumulatedUvDt": "12/10/2020",
            "priorAccumulatedUvDt": "12/09/2020",
            "changeFromPrevDayNm": "0.068889",
            "oneDayReturn": "0.31",
            "agentCh": "Y",
            "tpdCh": "N"
        },
        {
            "productUnitValueCd": "CE2",
            "accountUnitValueNo": "SepAcct1",
            "fundUnitvalueNm": "American Funds IS Global Balanced Fund-Class 1",
            "currentAccumulatedUvNm": "11.878742",
            "priorAccumlatedUvNm": "11.87882",
            "ytdRateNm": "18.79",
            "currAccumulatedUvDt": "12/10/2020",
            "priorAccumulatedUvDt": "12/09/2020",
            "changeFromPrevDayNm": "-0.000081",
            "oneDayReturn": "0.00",
            "agentCh": "Y",
            "tpdCh": "N"
        },
        {
            "productUnitValueCd": "CE2",
            "accountUnitValueNo": "SepAcct1",
            "fundUnitvalueNm": "Voya MidCap Opportunities Portfolio-Class I",
            "currentAccumulatedUvNm": "16.131581",
            "priorAccumlatedUvNm": "15.92453",
            "ytdRateNm": "36.02",
            "currAccumulatedUvDt": "12/10/2020",
            "priorAccumulatedUvDt": "12/09/2020",
            "changeFromPrevDayNm": "0.207054",
            "oneDayReturn": "1.30",
            "agentCh": "Y",
            "tpdCh": "N"
        },
        {
            "productUnitValueCd": "CE2",
            "accountUnitValueNo": "SepAcct1",
            "fundUnitvalueNm": "Amer Cent Invstmnts VP Inflation Protection Fund - Class 2",
            "currentAccumulatedUvNm": "11.735553",
            "priorAccumlatedUvNm": "11.71445",
            "ytdRateNm": "8.51",
            "currAccumulatedUvDt": "12/10/2020",
            "priorAccumulatedUvDt": "12/09/2020",
            "changeFromPrevDayNm": "0.021103",
            "oneDayReturn": "0.18",
            "agentCh": "Y",
            "tpdCh": "N"
        },
        {
            "productUnitValueCd": "CE2",
            "accountUnitValueNo": "SepAcct1",
            "fundUnitvalueNm": "MainStay VP T. Rowe Price Equity Income - Initial Class",
            "currentAccumulatedUvNm": "21.557736",
            "priorAccumlatedUvNm": "21.60240",
            "ytdRateNm": ".43",
            "currAccumulatedUvDt": "12/10/2020",
            "priorAccumulatedUvDt": "12/09/2020",
            "changeFromPrevDayNm": "-0.044665",
            "oneDayReturn": "-0.21",
            "agentCh": "Y",
            "tpdCh": "N"
        },
        {
            "productUnitValueCd": "CE2",
            "accountUnitValueNo": "SepAcct1",
            "fundUnitvalueNm": "Invesco VI Core Plus Bond-Series I Shares",
            "currentAccumulatedUvNm": "10.676867",
            "priorAccumlatedUvNm": "10.66147",
            "ytdRateNm": "6.77",
            "currAccumulatedUvDt": "12/10/2020",
            "priorAccumulatedUvDt": "12/09/2020",
            "changeFromPrevDayNm": "0.015401",
            "oneDayReturn": "0.14",
            "agentCh": "Y",
            "tpdCh": "N"
        },
        {
            "productUnitValueCd": "CE2",
            "accountUnitValueNo": "SepAcct1",
            "fundUnitvalueNm": "MainStay VP MacKay Common Stock - Int Class",
            "currentAccumulatedUvNm": "49.683027",
            "priorAccumlatedUvNm": "49.67616",
            "ytdRateNm": "12.48",
            "currAccumulatedUvDt": "12/10/2020",
            "priorAccumulatedUvDt": "12/09/2020",
            "changeFromPrevDayNm": "0.006863",
            "oneDayReturn": "0.01",
            "agentCh": "Y",
            "tpdCh": "N"
        },
        {
            "productUnitValueCd": "CE2",
            "accountUnitValueNo": "SepAcct1",
            "fundUnitvalueNm": "Delaware VIP Intl Value Equity Series-Standard Class",
            "currentAccumulatedUvNm": "15.509225",
            "priorAccumlatedUvNm": "15.47020",
            "ytdRateNm": "5.64",
            "currAccumulatedUvDt": "12/10/2020",
            "priorAccumulatedUvDt": "12/09/2020",
            "changeFromPrevDayNm": "0.039026",
            "oneDayReturn": "0.25",
            "agentCh": "Y",
            "tpdCh": "N"
        },
        {
            "productUnitValueCd": "CE2",
            "accountUnitValueNo": "SepAcct1",
            "fundUnitvalueNm": "American Funds IS Global Growth Fund - Class 1",
            "currentAccumulatedUvNm": "35.376124",
            "priorAccumlatedUvNm": "35.39405",
            "ytdRateNm": "26.83",
            "currAccumulatedUvDt": "12/10/2020",
            "priorAccumulatedUvDt": "12/09/2020",
            "changeFromPrevDayNm": "-0.017926",
            "oneDayReturn": "-0.05",
            "agentCh": "Y",
            "tpdCh": "N"
        },
        {
            "productUnitValueCd": "CE2",
            "accountUnitValueNo": "SepAcct1",
            "fundUnitvalueNm": "LVIP Mondrian International Value Fund - Standard Class",
            "currentAccumulatedUvNm": "11.315040",
            "priorAccumlatedUvNm": "11.34322",
            "ytdRateNm": "-6.03",
            "currAccumulatedUvDt": "12/10/2020",
            "priorAccumulatedUvDt": "12/09/2020",
            "changeFromPrevDayNm": "-0.028181",
            "oneDayReturn": "-0.25",
            "agentCh": "Y",
            "tpdCh": "N"
        },
        {
            "productUnitValueCd": "CE2",
            "accountUnitValueNo": "SepAcct1",
            "fundUnitvalueNm": "MFS VIT International Growth Portfolio-Initial Class",
            "currentAccumulatedUvNm": "13.072670",
            "priorAccumlatedUvNm": "13.03956",
            "ytdRateNm": "30.73",
            "currAccumulatedUvDt": "12/10/2020",
            "priorAccumulatedUvDt": "12/09/2020",
            "changeFromPrevDayNm": "0.033112",
            "oneDayReturn": "0.25",
            "agentCh": "Y",
            "tpdCh": "N"
        },
        {
            "productUnitValueCd": "CE2",
            "accountUnitValueNo": "SepAcct1",
            "fundUnitvalueNm": "Thrivent Mid Cap Stock Portfolio",
            "currentAccumulatedUvNm": "15.121670",
            "priorAccumlatedUvNm": "15.05246",
            "ytdRateNm": "51.22",
            "currAccumulatedUvDt": "12/10/2020",
            "priorAccumulatedUvDt": "12/09/2020",
            "changeFromPrevDayNm": "0.069214",
            "oneDayReturn": "0.46",
            "agentCh": "Y",
            "tpdCh": "N"
        },
        {
            "productUnitValueCd": "CE2",
            "accountUnitValueNo": "SepAcct1",
            "fundUnitvalueNm": "Delaware VIP Small Cap Value Series-Standard Class",
            "currentAccumulatedUvNm": "20.204960",
            "priorAccumlatedUvNm": "20.12086",
            "ytdRateNm": "-3.80",
            "currAccumulatedUvDt": "12/10/2020",
            "priorAccumulatedUvDt": "12/09/2020",
            "changeFromPrevDayNm": "0.084101",
            "oneDayReturn": "0.42",
            "agentCh": "Y",
            "tpdCh": "N"
        },
        {
            "productUnitValueCd": "CE2",
            "accountUnitValueNo": "SepAcct1",
            "fundUnitvalueNm": "MainStay VP Winslow Large Cap Growth - Initial Class",
            "currentAccumulatedUvNm": "50.220434",
            "priorAccumlatedUvNm": "50.01242",
            "ytdRateNm": "31.47",
            "currAccumulatedUvDt": "12/10/2020",
            "priorAccumulatedUvDt": "12/09/2020",
            "changeFromPrevDayNm": "0.208015",
            "oneDayReturn": "0.42",
            "agentCh": "Y",
            "tpdCh": "N"
        },
        {
            "productUnitValueCd": "CE2",
            "accountUnitValueNo": "SepAcct1",
            "fundUnitvalueNm": "VY JPMorgan Small Cap Core Equity Portfolio-Class I",
            "currentAccumulatedUvNm": "15.017983",
            "priorAccumlatedUvNm": "14.94479",
            "ytdRateNm": "50.18",
            "currAccumulatedUvDt": "12/10/2020",
            "priorAccumulatedUvDt": "12/09/2020",
            "changeFromPrevDayNm": "0.073197",
            "oneDayReturn": "0.49",
            "agentCh": "Y",
            "tpdCh": "N"
        },
        {
            "productUnitValueCd": "CE2",
            "accountUnitValueNo": "SepAcct1",
            "fundUnitvalueNm": "MainStay VP Fidelity Institutional AM Utilities - Initial Cl",
            "currentAccumulatedUvNm": "18.672643",
            "priorAccumlatedUvNm": "18.78549",
            "ytdRateNm": "-3.33",
            "currAccumulatedUvDt": "12/10/2020",
            "priorAccumulatedUvDt": "12/09/2020",
            "changeFromPrevDayNm": "-0.112850",
            "oneDayReturn": "-0.60",
            "agentCh": "Y",
            "tpdCh": "N"
        },
        {
            "productUnitValueCd": "CE2",
            "accountUnitValueNo": "SepAcct1",
            "fundUnitvalueNm": "Fidelity VIP Emerging Markets Portfolio-Initial Class",
            "currentAccumulatedUvNm": "13.589304",
            "priorAccumlatedUvNm": "13.45589",
            "ytdRateNm": "26.52",
            "currAccumulatedUvDt": "12/10/2020",
            "priorAccumulatedUvDt": "12/09/2020",
            "changeFromPrevDayNm": "0.133418",
            "oneDayReturn": "0.99",
            "agentCh": "Y",
            "tpdCh": "N"
        },
        {
            "productUnitValueCd": "CE2",
            "accountUnitValueNo": "SepAcct1",
            "fundUnitvalueNm": "Fidelity VIP Total Market Index Portfolio-Initial Class",
            "currentAccumulatedUvNm": "13.491175",
            "priorAccumlatedUvNm": "13.47184",
            "ytdRateNm": "34.91",
            "currAccumulatedUvDt": "12/10/2020",
            "priorAccumulatedUvDt": "12/09/2020",
            "changeFromPrevDayNm": "0.019334",
            "oneDayReturn": "0.14",
            "agentCh": "Y",
            "tpdCh": "N"
        },
        {
            "productUnitValueCd": "CE2",
            "accountUnitValueNo": "SepAcct1",
            "fundUnitvalueNm": "MainStay VP MacKay International Equity - Initial Class",
            "currentAccumulatedUvNm": "38.573347",
            "priorAccumlatedUvNm": "38.59237",
            "ytdRateNm": "16.98",
            "currAccumulatedUvDt": "12/10/2020",
            "priorAccumulatedUvDt": "12/09/2020",
            "changeFromPrevDayNm": "-0.019027",
            "oneDayReturn": "-0.05",
            "agentCh": "Y",
            "tpdCh": "N"
        },
        {
            "productUnitValueCd": "CE2",
            "accountUnitValueNo": "SepAcct1",
            "fundUnitvalueNm": "AB VPS Small/Mid Cap Value Portfolio-Class A",
            "currentAccumulatedUvNm": "24.257156",
            "priorAccumlatedUvNm": "24.21516",
            "ytdRateNm": "2.36",
            "currAccumulatedUvDt": "12/10/2020",
            "priorAccumulatedUvDt": "12/09/2020",
            "changeFromPrevDayNm": "0.041997",
            "oneDayReturn": "0.17",
            "agentCh": "Y",
            "tpdCh": "N"
        },
        {
            "productUnitValueCd": "CE2",
            "accountUnitValueNo": "SepAcct1",
            "fundUnitvalueNm": "Fidelity VIP Strategic Income - Initial Class",
            "currentAccumulatedUvNm": "12.333538",
            "priorAccumlatedUvNm": "12.32350",
            "ytdRateNm": "6.30",
            "currAccumulatedUvDt": "12/10/2020",
            "priorAccumulatedUvDt": "12/09/2020",
            "changeFromPrevDayNm": "0.010034",
            "oneDayReturn": "0.08",
            "agentCh": "Y",
            "tpdCh": "N"
        },
        {
            "productUnitValueCd": "CE2",
            "accountUnitValueNo": "SepAcct1",
            "fundUnitvalueNm": "MainStay VP Emerging Markets Equity - Initial Class",
            "currentAccumulatedUvNm": "12.596338",
            "priorAccumlatedUvNm": "12.54003",
            "ytdRateNm": "20.69",
            "currAccumulatedUvDt": "12/10/2020",
            "priorAccumulatedUvDt": "12/09/2020",
            "changeFromPrevDayNm": "0.056304",
            "oneDayReturn": "0.45",
            "agentCh": "Y",
            "tpdCh": "N"
        },
        {
            "productUnitValueCd": "CE2",
            "accountUnitValueNo": "SepAcct1",
            "fundUnitvalueNm": "American Funds IS Asset Allocation Fund - Class 1",
            "currentAccumulatedUvNm": "15.259750",
            "priorAccumlatedUvNm": "15.24230",
            "ytdRateNm": "10.67",
            "currAccumulatedUvDt": "12/10/2020",
            "priorAccumulatedUvDt": "12/09/2020",
            "changeFromPrevDayNm": "0.017449",
            "oneDayReturn": "0.11",
            "agentCh": "Y",
            "tpdCh": "N"
        },
        {
            "productUnitValueCd": "CE2",
            "accountUnitValueNo": "SepAcct1",
            "fundUnitvalueNm": "Fidelity VIP Freedom 2040 Portfolio - Initial Class",
            "currentAccumulatedUvNm": "27.916847",
            "priorAccumlatedUvNm": "27.84094",
            "ytdRateNm": "16.03",
            "currAccumulatedUvDt": "12/10/2020",
            "priorAccumulatedUvDt": "12/09/2020",
            "changeFromPrevDayNm": "0.075908",
            "oneDayReturn": "0.27",
            "agentCh": "Y",
            "tpdCh": "N"
        },
        {
            "productUnitValueCd": "CE2",
            "accountUnitValueNo": "SepAcct1",
            "fundUnitvalueNm": "MainStay VP Epoch U.S. Equity Yield - Initial Class",
            "currentAccumulatedUvNm": "34.595070",
            "priorAccumlatedUvNm": "34.75671",
            "ytdRateNm": "-1.01",
            "currAccumulatedUvDt": "12/10/2020",
            "priorAccumulatedUvDt": "12/09/2020",
            "changeFromPrevDayNm": "-0.161635",
            "oneDayReturn": "-0.47",
            "agentCh": "Y",
            "tpdCh": "N"
        },
        {
            "productUnitValueCd": "CE2",
            "accountUnitValueNo": "SepAcct1",
            "fundUnitvalueNm": "Fidelity VIP Freedom 2030 Portfolio - Initial Class",
            "currentAccumulatedUvNm": "25.794035",
            "priorAccumlatedUvNm": "25.73258",
            "ytdRateNm": "14.27",
            "currAccumulatedUvDt": "12/10/2020",
            "priorAccumulatedUvDt": "12/09/2020",
            "changeFromPrevDayNm": "0.061459",
            "oneDayReturn": "0.24",
            "agentCh": "Y",
            "tpdCh": "N"
        },
        {
            "productUnitValueCd": "CE2",
            "accountUnitValueNo": "SepAcct1",
            "fundUnitvalueNm": "Alger Capital Appreciation Portfolio - Class I-2 Shares",
            "currentAccumulatedUvNm": "48.984586",
            "priorAccumlatedUvNm": "48.85384",
            "ytdRateNm": "38.20",
            "currAccumulatedUvDt": "12/10/2020",
            "priorAccumulatedUvDt": "12/09/2020",
            "changeFromPrevDayNm": "0.130747",
            "oneDayReturn": "0.27",
            "agentCh": "N",
            "tpdCh": "N"
        },
        {
            "productUnitValueCd": "CE2",
            "accountUnitValueNo": "SepAcct1",
            "fundUnitvalueNm": "Fidelity VIP Bond Index Portfolio-Initial Class",
            "currentAccumulatedUvNm": "10.153264",
            "priorAccumlatedUvNm": "10.13560",
            "ytdRateNm": "1.53",
            "currAccumulatedUvDt": "12/10/2020",
            "priorAccumulatedUvDt": "12/09/2020",
            "changeFromPrevDayNm": "0.017666",
            "oneDayReturn": "0.17",
            "agentCh": "Y",
            "tpdCh": "N"
        },
        {
            "productUnitValueCd": "CE2",
            "accountUnitValueNo": "SepAcct1",
            "fundUnitvalueNm": "T. Rowe Price New America Growth Portfolio",
            "currentAccumulatedUvNm": "72.899968",
            "priorAccumlatedUvNm": "72.70658",
            "ytdRateNm": "39.45",
            "currAccumulatedUvDt": "12/10/2020",
            "priorAccumulatedUvDt": "12/09/2020",
            "changeFromPrevDayNm": "0.193388",
            "oneDayReturn": "0.27",
            "agentCh": "Y",
            "tpdCh": "N"
        },
        {
            "productUnitValueCd": "CE2",
            "accountUnitValueNo": "SepAcct1",
            "fundUnitvalueNm": "Morgan Stanley VIF Global Infrastructure Portfolio Class I",
            "currentAccumulatedUvNm": "14.634234",
            "priorAccumlatedUvNm": "14.59662",
            "ytdRateNm": "-1.38",
            "currAccumulatedUvDt": "12/10/2020",
            "priorAccumulatedUvDt": "12/09/2020",
            "changeFromPrevDayNm": "0.037618",
            "oneDayReturn": "0.26",
            "agentCh": "Y",
            "tpdCh": "N"
        },
        {
            "productUnitValueCd": "CE2",
            "accountUnitValueNo": "SepAcct1",
            "fundUnitvalueNm": "MFS VIT Global Growth Portfolio-Initial Class",
            "currentAccumulatedUvNm": "13.303094",
            "priorAccumlatedUvNm": "13.30757",
            "ytdRateNm": "33.03",
            "currAccumulatedUvDt": "12/10/2020",
            "priorAccumulatedUvDt": "12/09/2020",
            "changeFromPrevDayNm": "-0.004473",
            "oneDayReturn": "-0.03",
            "agentCh": "Y",
            "tpdCh": "N"
        },
        {
            "productUnitValueCd": "CE2",
            "accountUnitValueNo": "SepAcct1",
            "fundUnitvalueNm": "BlackRock High Yield V.I. Fund - Class I",
            "currentAccumulatedUvNm": "13.912971",
            "priorAccumlatedUvNm": "13.91124",
            "ytdRateNm": "6.00",
            "currAccumulatedUvDt": "12/10/2020",
            "priorAccumulatedUvDt": "12/09/2020",
            "changeFromPrevDayNm": "0.001728",
            "oneDayReturn": "0.01",
            "agentCh": "Y",
            "tpdCh": "N"
        },
        {
            "productUnitValueCd": "CE2",
            "accountUnitValueNo": "SepAcct1",
            "fundUnitvalueNm": "MFS Value Series - Initial Class",
            "currentAccumulatedUvNm": "28.288988",
            "priorAccumlatedUvNm": "28.35955",
            "ytdRateNm": "1.71",
            "currAccumulatedUvDt": "12/10/2020",
            "priorAccumulatedUvDt": "12/09/2020",
            "changeFromPrevDayNm": "-0.070565",
            "oneDayReturn": "-0.25",
            "agentCh": "Y",
            "tpdCh": "N"
        },
        {
            "productUnitValueCd": "CE2",
            "accountUnitValueNo": "SepAcct1",
            "fundUnitvalueNm": "Fidelity VIP Govt Money Market Portfolio - Initial Class",
            "currentAccumulatedUvNm": "10.271076",
            "priorAccumlatedUvNm": "10.27114",
            "ytdRateNm": ".08",
            "currAccumulatedUvDt": "12/10/2020",
            "priorAccumulatedUvDt": "12/09/2020",
            "changeFromPrevDayNm": "-0.000067",
            "oneDayReturn": "0.00",
            "agentCh": "Y",
            "tpdCh": "N"
        },
        {
            "productUnitValueCd": "CE2",
            "accountUnitValueNo": "SepAcct1",
            "fundUnitvalueNm": "Fidelity VIP Value Strategies Portfolio - Service Class 2",
            "currentAccumulatedUvNm": "25.362923",
            "priorAccumlatedUvNm": "25.38208",
            "ytdRateNm": "5.25",
            "currAccumulatedUvDt": "12/10/2020",
            "priorAccumulatedUvDt": "12/09/2020",
            "changeFromPrevDayNm": "-0.019158",
            "oneDayReturn": "-0.08",
            "agentCh": "Y",
            "tpdCh": "N"
        },
        {
            "productUnitValueCd": "CE2",
            "accountUnitValueNo": "SepAcct1",
            "fundUnitvalueNm": "American Funds IS Global Small Cap - Class 1",
            "currentAccumulatedUvNm": "18.738064",
            "priorAccumlatedUvNm": "18.55709",
            "ytdRateNm": "23.38",
            "currAccumulatedUvDt": "12/10/2020",
            "priorAccumulatedUvDt": "12/09/2020",
            "changeFromPrevDayNm": "0.180977",
            "oneDayReturn": "0.98",
            "agentCh": "Y",
            "tpdCh": "N"
        },
        {
            "productUnitValueCd": "CE2",
            "accountUnitValueNo": "SepAcct1",
            "fundUnitvalueNm": "American Funds IS Global Bond Fund - Class I",
            "currentAccumulatedUvNm": "12.705968",
            "priorAccumlatedUvNm": "12.66644",
            "ytdRateNm": "8.98",
            "currAccumulatedUvDt": "12/10/2020",
            "priorAccumulatedUvDt": "12/09/2020",
            "changeFromPrevDayNm": "0.039527",
            "oneDayReturn": "0.31",
            "agentCh": "Y",
            "tpdCh": "N"
        },
        {
            "productUnitValueCd": "CE2",
            "accountUnitValueNo": "SepAcct1",
            "fundUnitvalueNm": "Fidelity VIP Real Estate Portfolio - Initial Class",
            "currentAccumulatedUvNm": "14.902809",
            "priorAccumlatedUvNm": "14.94692",
            "ytdRateNm": "-9.44",
            "currAccumulatedUvDt": "12/10/2020",
            "priorAccumulatedUvDt": "12/09/2020",
            "changeFromPrevDayNm": "-0.044115",
            "oneDayReturn": "-0.30",
            "agentCh": "Y",
            "tpdCh": "N"
        },
        {
            "productUnitValueCd": "CE2",
            "accountUnitValueNo": "SepAcct1",
            "fundUnitvalueNm": "MFS Investors Trust Series - Initial Class",
            "currentAccumulatedUvNm": "49.477933",
            "priorAccumlatedUvNm": "49.50601",
            "ytdRateNm": "10.84",
            "currAccumulatedUvDt": "12/10/2020",
            "priorAccumulatedUvDt": "12/09/2020",
            "changeFromPrevDayNm": "-0.028072",
            "oneDayReturn": "-0.06",
            "agentCh": "Y",
            "tpdCh": "N"
        },
        {
            "productUnitValueCd": "CE2",
            "accountUnitValueNo": "SepAcct1",
            "fundUnitvalueNm": "PIMCO VIT Intl Bond Port (USD-Hedged) - Inst Class",
            "currentAccumulatedUvNm": "10.546689",
            "priorAccumlatedUvNm": "10.54646",
            "ytdRateNm": "5.47",
            "currAccumulatedUvDt": "12/10/2020",
            "priorAccumulatedUvDt": "12/09/2020",
            "changeFromPrevDayNm": "0.000227",
            "oneDayReturn": "0.00",
            "agentCh": "Y",
            "tpdCh": "N"
        },
        {
            "productUnitValueCd": "CE2",
            "accountUnitValueNo": "SepAcct1",
            "fundUnitvalueNm": "DFA VA Global Moderate Allocation Portfolio - Institutional",
            "currentAccumulatedUvNm": "13.028648",
            "priorAccumlatedUvNm": "13.01980",
            "ytdRateNm": "9.28",
            "currAccumulatedUvDt": "12/10/2020",
            "priorAccumulatedUvDt": "12/09/2020",
            "changeFromPrevDayNm": "0.008847",
            "oneDayReturn": "0.07",
            "agentCh": "Y",
            "tpdCh": "N"
        },
        {
            "productUnitValueCd": "CE2",
            "accountUnitValueNo": "SepAcct1",
            "fundUnitvalueNm": "TOPS Managed Risk Growth ETF Portfolio - Class 2 Shares",
            "currentAccumulatedUvNm": "15.639699",
            "priorAccumlatedUvNm": "15.59918",
            "ytdRateNm": "3.07",
            "currAccumulatedUvDt": "12/10/2020",
            "priorAccumulatedUvDt": "12/09/2020",
            "changeFromPrevDayNm": "0.040516",
            "oneDayReturn": "0.26",
            "agentCh": "Y",
            "tpdCh": "N"
        },
        {
            "productUnitValueCd": "CE2",
            "accountUnitValueNo": "SepAcct1",
            "fundUnitvalueNm": "Columbia Variable Portfolio-Strategic Income-Class 1",
            "currentAccumulatedUvNm": "11.421962",
            "priorAccumlatedUvNm": "11.42204",
            "ytdRateNm": "14.22",
            "currAccumulatedUvDt": "12/10/2020",
            "priorAccumulatedUvDt": "12/09/2020",
            "changeFromPrevDayNm": "-0.000078",
            "oneDayReturn": "0.00",
            "agentCh": "Y",
            "tpdCh": "N"
        },
        {
            "productUnitValueCd": "CE2",
            "accountUnitValueNo": "SepAcct1",
            "fundUnitvalueNm": "American Funds IS Growth-Income Fund - Class 1",
            "currentAccumulatedUvNm": "17.724965",
            "priorAccumlatedUvNm": "17.74470",
            "ytdRateNm": "11.17",
            "currAccumulatedUvDt": "12/10/2020",
            "priorAccumulatedUvDt": "12/09/2020",
            "changeFromPrevDayNm": "-0.019736",
            "oneDayReturn": "-0.11",
            "agentCh": "Y",
            "tpdCh": "N"
        },
        {
            "productUnitValueCd": "CE2",
            "accountUnitValueNo": "SepAcct1",
            "fundUnitvalueNm": "DWS Alternative Asset Allocation VIP - Class A",
            "currentAccumulatedUvNm": "11.162784",
            "priorAccumlatedUvNm": "11.10494",
            "ytdRateNm": "3.84",
            "currAccumulatedUvDt": "12/10/2020",
            "priorAccumulatedUvDt": "12/09/2020",
            "changeFromPrevDayNm": "0.057849",
            "oneDayReturn": "0.52",
            "agentCh": "Y",
            "tpdCh": "N"
        },
        {
            "productUnitValueCd": "CE2",
            "accountUnitValueNo": "SepAcct1",
            "fundUnitvalueNm": "VanEck VIP Emerging Markets Bond Fund-Initial Class Shares",
            "currentAccumulatedUvNm": "14.514557",
            "priorAccumlatedUvNm": "14.46472",
            "ytdRateNm": "7.31",
            "currAccumulatedUvDt": "12/10/2020",
            "priorAccumulatedUvDt": "12/09/2020",
            "changeFromPrevDayNm": "0.049837",
            "oneDayReturn": "0.35",
            "agentCh": "Y",
            "tpdCh": "N"
        },
        {
            "productUnitValueCd": "CE2",
            "accountUnitValueNo": "SepAcct1",
            "fundUnitvalueNm": "Morgan Stanley VIF U.S. Real Estate Portfolio Class I",
            "currentAccumulatedUvNm": "37.361933",
            "priorAccumlatedUvNm": "37.55918",
            "ytdRateNm": "-17.34",
            "currAccumulatedUvDt": "12/10/2020",
            "priorAccumulatedUvDt": "12/09/2020",
            "changeFromPrevDayNm": "-0.197245",
            "oneDayReturn": "-0.53",
            "agentCh": "Y",
            "tpdCh": "N"
        },
        {
            "productUnitValueCd": "CE2",
            "accountUnitValueNo": "SepAcct1",
            "fundUnitvalueNm": "Fidelity VIP Contrafund Portfolio - Initial Class",
            "currentAccumulatedUvNm": "63.274815",
            "priorAccumlatedUvNm": "63.11276",
            "ytdRateNm": "26.37",
            "currAccumulatedUvDt": "12/10/2020",
            "priorAccumulatedUvDt": "12/09/2020",
            "changeFromPrevDayNm": "0.162056",
            "oneDayReturn": "0.26",
            "agentCh": "Y",
            "tpdCh": "N"
        },
        {
            "productUnitValueCd": "CE2",
            "accountUnitValueNo": "SepAcct1",
            "fundUnitvalueNm": "MFS Global Tactical Allocation Portfolio - Initial Class",
            "currentAccumulatedUvNm": "17.043148",
            "priorAccumlatedUvNm": "17.02141",
            "ytdRateNm": "4.70",
            "currAccumulatedUvDt": "12/10/2020",
            "priorAccumulatedUvDt": "12/09/2020",
            "changeFromPrevDayNm": "0.021734",
            "oneDayReturn": "0.13",
            "agentCh": "Y",
            "tpdCh": "N"
        },
        {
            "productUnitValueCd": "CE2",
            "accountUnitValueNo": "SepAcct1",
            "fundUnitvalueNm": "Lord Abbett Mid Cap Value Portfolio",
            "currentAccumulatedUvNm": "33.857659",
            "priorAccumlatedUvNm": "33.87205",
            "ytdRateNm": ".49",
            "currAccumulatedUvDt": "12/10/2020",
            "priorAccumulatedUvDt": "12/09/2020",
            "changeFromPrevDayNm": "-0.014392",
            "oneDayReturn": "-0.04",
            "agentCh": "Y",
            "tpdCh": "N"
        },
        {
            "productUnitValueCd": "CE2",
            "accountUnitValueNo": "SepAcct1",
            "fundUnitvalueNm": "MainStay VP MacKay Small Cap Core - Initial Class",
            "currentAccumulatedUvNm": "13.740548",
            "priorAccumlatedUvNm": "13.60353",
            "ytdRateNm": "7.71",
            "currAccumulatedUvDt": "12/10/2020",
            "priorAccumulatedUvDt": "12/09/2020",
            "changeFromPrevDayNm": "0.137022",
            "oneDayReturn": "1.01",
            "agentCh": "Y",
            "tpdCh": "N"
        },
        {
            "productUnitValueCd": "CE2",
            "accountUnitValueNo": "SepAcct1",
            "fundUnitvalueNm": "American Funds IS New World Fund - Class 1",
            "currentAccumulatedUvNm": "17.064253",
            "priorAccumlatedUvNm": "16.95782",
            "ytdRateNm": "19.06",
            "currAccumulatedUvDt": "12/10/2020",
            "priorAccumulatedUvDt": "12/09/2020",
            "changeFromPrevDayNm": "0.106431",
            "oneDayReturn": "0.63",
            "agentCh": "Y",
            "tpdCh": "N"
        },
        {
            "productUnitValueCd": "CE2",
            "accountUnitValueNo": "SepAcct1",
            "fundUnitvalueNm": "Fidelity VIP Freedom 2010 Portfolio - Initial Class",
            "currentAccumulatedUvNm": "20.824186",
            "priorAccumlatedUvNm": "20.78073",
            "ytdRateNm": "10.83",
            "currAccumulatedUvDt": "12/10/2020",
            "priorAccumulatedUvDt": "12/09/2020",
            "changeFromPrevDayNm": "0.043454",
            "oneDayReturn": "0.21",
            "agentCh": "Y",
            "tpdCh": "N"
        },
        {
            "productUnitValueCd": "CE2",
            "accountUnitValueNo": "SepAcct1",
            "fundUnitvalueNm": "Fidelity VIP Health Care Port - Initial Class",
            "currentAccumulatedUvNm": "12.216473",
            "priorAccumlatedUvNm": "12.15233",
            "ytdRateNm": "22.17",
            "currAccumulatedUvDt": "12/10/2020",
            "priorAccumulatedUvDt": "12/09/2020",
            "changeFromPrevDayNm": "0.064147",
            "oneDayReturn": "0.53",
            "agentCh": "Y",
            "tpdCh": "N"
        },
        {
            "productUnitValueCd": "CE2",
            "accountUnitValueNo": "SepAcct1",
            "fundUnitvalueNm": "Alger Weatherbie Specialized Growth Portfolio - Class I-2",
            "currentAccumulatedUvNm": "46.230580",
            "priorAccumlatedUvNm": "45.56808",
            "ytdRateNm": "47.27",
            "currAccumulatedUvDt": "12/10/2020",
            "priorAccumulatedUvDt": "12/09/2020",
            "changeFromPrevDayNm": "0.662497",
            "oneDayReturn": "1.45",
            "agentCh": "Y",
            "tpdCh": "N"
        },
        {
            "productUnitValueCd": "CE2",
            "accountUnitValueNo": "SepAcct1",
            "fundUnitvalueNm": "AB VPS Small Cap Growth Portfolio-Class A",
            "currentAccumulatedUvNm": "16.084833",
            "priorAccumlatedUvNm": "15.83919",
            "ytdRateNm": "60.85",
            "currAccumulatedUvDt": "12/10/2020",
            "priorAccumulatedUvDt": "12/09/2020",
            "changeFromPrevDayNm": "0.245642",
            "oneDayReturn": "1.55",
            "agentCh": "Y",
            "tpdCh": "N"
        },
        {
            "productUnitValueCd": "CE2",
            "accountUnitValueNo": "SepAcct1",
            "fundUnitvalueNm": "Delaware VIP Emerging Markets Series-Standard Class",
            "currentAccumulatedUvNm": "17.812561",
            "priorAccumlatedUvNm": "17.78161",
            "ytdRateNm": "21.57",
            "currAccumulatedUvDt": "12/10/2020",
            "priorAccumulatedUvDt": "12/09/2020",
            "changeFromPrevDayNm": "0.030954",
            "oneDayReturn": "0.17",
            "agentCh": "Y",
            "tpdCh": "N"
        },
        {
            "productUnitValueCd": "CE2",
            "accountUnitValueNo": "SepAcct1",
            "fundUnitvalueNm": "ClearBridge Variable Appreciation Portfolio - Class I",
            "currentAccumulatedUvNm": "14.411997",
            "priorAccumlatedUvNm": "14.44816",
            "ytdRateNm": "11.98",
            "currAccumulatedUvDt": "12/10/2020",
            "priorAccumulatedUvDt": "12/09/2020",
            "changeFromPrevDayNm": "-0.036164",
            "oneDayReturn": "-0.25",
            "agentCh": "Y",
            "tpdCh": "N"
        },
        {
            "productUnitValueCd": "CE2",
            "accountUnitValueNo": "SepAcct1",
            "fundUnitvalueNm": "PIMCO VIT Income Portfolio-Institutional Class",
            "currentAccumulatedUvNm": "11.134357",
            "priorAccumlatedUvNm": "11.12352",
            "ytdRateNm": "11.34",
            "currAccumulatedUvDt": "12/10/2020",
            "priorAccumulatedUvDt": "12/09/2020",
            "changeFromPrevDayNm": "0.010839",
            "oneDayReturn": "0.10",
            "agentCh": "Y",
            "tpdCh": "N"
        },
        {
            "productUnitValueCd": "CE2",
            "accountUnitValueNo": "SepAcct1",
            "fundUnitvalueNm": "DFA VIT Inflation-Protection Securities Portfolio",
            "currentAccumulatedUvNm": "12.481968",
            "priorAccumlatedUvNm": "12.48205",
            "ytdRateNm": "10.53",
            "currAccumulatedUvDt": "12/10/2020",
            "priorAccumulatedUvDt": "12/09/2020",
            "changeFromPrevDayNm": "-0.000085",
            "oneDayReturn": "0.00",
            "agentCh": "Y",
            "tpdCh": "N"
        },
        {
            "productUnitValueCd": "CE2",
            "accountUnitValueNo": "SepAcct1",
            "fundUnitvalueNm": "MainStay VP MacKay Convertible - Initial Class",
            "currentAccumulatedUvNm": "50.907121",
            "priorAccumlatedUvNm": "50.34780",
            "ytdRateNm": "30.96",
            "currAccumulatedUvDt": "12/10/2020",
            "priorAccumulatedUvDt": "12/09/2020",
            "changeFromPrevDayNm": "0.559318",
            "oneDayReturn": "1.11",
            "agentCh": "Y",
            "tpdCh": "N"
        },
        {
            "productUnitValueCd": "CE2",
            "accountUnitValueNo": "SepAcct1",
            "fundUnitvalueNm": "DFA VA Global Bond Portfolio",
            "currentAccumulatedUvNm": "10.994874",
            "priorAccumlatedUvNm": "10.99495",
            "ytdRateNm": "1.19",
            "currAccumulatedUvDt": "12/10/2020",
            "priorAccumulatedUvDt": "12/09/2020",
            "changeFromPrevDayNm": "-0.000075",
            "oneDayReturn": "0.00",
            "agentCh": "Y",
            "tpdCh": "N"
        },
        {
            "productUnitValueCd": "CE2",
            "accountUnitValueNo": "SepAcct1",
            "fundUnitvalueNm": "Invesco V.I. Global Real Estate Fund - Series I",
            "currentAccumulatedUvNm": "13.696740",
            "priorAccumlatedUvNm": "13.72543",
            "ytdRateNm": "-14.43",
            "currAccumulatedUvDt": "12/10/2020",
            "priorAccumulatedUvDt": "12/09/2020",
            "changeFromPrevDayNm": "-0.028688",
            "oneDayReturn": "-0.21",
            "agentCh": "Y",
            "tpdCh": "N"
        },
        {
            "productUnitValueCd": "CE2",
            "accountUnitValueNo": "SepAcct1",
            "fundUnitvalueNm": "LVIP SSgA Emerging Markets 100 Fund",
            "currentAccumulatedUvNm": "10.353869",
            "priorAccumlatedUvNm": "10.32226",
            "ytdRateNm": "-1.14",
            "currAccumulatedUvDt": "12/10/2020",
            "priorAccumulatedUvDt": "12/09/2020",
            "changeFromPrevDayNm": "0.031608",
            "oneDayReturn": "0.31",
            "agentCh": "Y",
            "tpdCh": "N"
        },
        {
            "productUnitValueCd": "CE2",
            "accountUnitValueNo": "SepAcct1",
            "fundUnitvalueNm": "Fidelity VIP Overseas Portfolio - Initial Class",
            "currentAccumulatedUvNm": "20.078789",
            "priorAccumlatedUvNm": "20.07109",
            "ytdRateNm": "11.43",
            "currAccumulatedUvDt": "12/10/2020",
            "priorAccumulatedUvDt": "12/09/2020",
            "changeFromPrevDayNm": "0.007700",
            "oneDayReturn": "0.04",
            "agentCh": "Y",
            "tpdCh": "N"
        },
        {
            "productUnitValueCd": "CE2",
            "accountUnitValueNo": "SepAcct1",
            "fundUnitvalueNm": "ClearBridge Variable Small Cap Growth Portfolio-Class I",
            "currentAccumulatedUvNm": "16.031295",
            "priorAccumlatedUvNm": "15.81662",
            "ytdRateNm": "60.31",
            "currAccumulatedUvDt": "12/10/2020",
            "priorAccumulatedUvDt": "12/09/2020",
            "changeFromPrevDayNm": "0.214675",
            "oneDayReturn": "1.36",
            "agentCh": "Y",
            "tpdCh": "N"
        },
        {
            "productUnitValueCd": "CE2",
            "accountUnitValueNo": "SepAcct1",
            "fundUnitvalueNm": "Voya Index Solution 2050 Portfolio-Class Z",
            "currentAccumulatedUvNm": "13.127843",
            "priorAccumlatedUvNm": "13.10731",
            "ytdRateNm": "31.28",
            "currAccumulatedUvDt": "12/10/2020",
            "priorAccumulatedUvDt": "12/09/2020",
            "changeFromPrevDayNm": "0.020530",
            "oneDayReturn": "0.16",
            "agentCh": "Y",
            "tpdCh": "N"
        },
        {
            "productUnitValueCd": "CE2",
            "accountUnitValueNo": "SepAcct1",
            "fundUnitvalueNm": "Thrivent Series Small Cap Index",
            "currentAccumulatedUvNm": "11.838262",
            "priorAccumlatedUvNm": "11.77985",
            "ytdRateNm": "8.38",
            "currAccumulatedUvDt": "12/10/2020",
            "priorAccumulatedUvDt": "12/09/2020",
            "changeFromPrevDayNm": "0.058408",
            "oneDayReturn": "0.50",
            "agentCh": "Y",
            "tpdCh": "N"
        },
        {
            "productUnitValueCd": "CE2",
            "accountUnitValueNo": "SepAcct1",
            "fundUnitvalueNm": "DFA VA International Value Portfolio",
            "currentAccumulatedUvNm": "13.755094",
            "priorAccumlatedUvNm": "13.74366",
            "ytdRateNm": "37.55",
            "currAccumulatedUvDt": "12/10/2020",
            "priorAccumulatedUvDt": "12/09/2020",
            "changeFromPrevDayNm": "0.011436",
            "oneDayReturn": "0.08",
            "agentCh": "Y",
            "tpdCh": "N"
        },
        {
            "productUnitValueCd": "CE2",
            "accountUnitValueNo": "SepAcct1",
            "fundUnitvalueNm": "Fidelity VIP Index 500 Portfolio - Initial Class",
            "currentAccumulatedUvNm": "53.304367",
            "priorAccumlatedUvNm": "53.36941",
            "ytdRateNm": "15.12",
            "currAccumulatedUvDt": "12/10/2020",
            "priorAccumulatedUvDt": "12/09/2020",
            "changeFromPrevDayNm": "-0.065040",
            "oneDayReturn": "-0.12",
            "agentCh": "Y",
            "tpdCh": "N"
        },
        {
            "productUnitValueCd": "CE2",
            "accountUnitValueNo": "SepAcct1",
            "fundUnitvalueNm": "TOPS Managed Risk Balanced ETF Portfolio - Class 2 Shares",
            "currentAccumulatedUvNm": "15.047369",
            "priorAccumlatedUvNm": "15.02166",
            "ytdRateNm": "4.39",
            "currAccumulatedUvDt": "12/10/2020",
            "priorAccumulatedUvDt": "12/09/2020",
            "changeFromPrevDayNm": "0.025708",
            "oneDayReturn": "0.17",
            "agentCh": "Y",
            "tpdCh": "N"
        },
        {
            "productUnitValueCd": "CE2",
            "accountUnitValueNo": "SepAcct1",
            "fundUnitvalueNm": "MainStay VP Income Builder - Initial Class",
            "currentAccumulatedUvNm": "11.740797",
            "priorAccumlatedUvNm": "11.73503",
            "ytdRateNm": "17.41",
            "currAccumulatedUvDt": "12/10/2020",
            "priorAccumulatedUvDt": "12/09/2020",
            "changeFromPrevDayNm": "0.005764",
            "oneDayReturn": "0.05",
            "agentCh": "Y",
            "tpdCh": "N"
        },
        {
            "productUnitValueCd": "CE2",
            "accountUnitValueNo": "SepAcct1",
            "fundUnitvalueNm": "Invesco Oppenheimer V.I. Capital Appreciation Fund-Series I",
            "currentAccumulatedUvNm": "37.638559",
            "priorAccumlatedUvNm": "37.51197",
            "ytdRateNm": "32.22",
            "currAccumulatedUvDt": "12/10/2020",
            "priorAccumulatedUvDt": "12/09/2020",
            "changeFromPrevDayNm": "0.126585",
            "oneDayReturn": "0.34",
            "agentCh": "Y",
            "tpdCh": "N"
        },
        {
            "productUnitValueCd": "CE2",
            "accountUnitValueNo": "SepAcct1",
            "fundUnitvalueNm": "DFA VA International Small Portfolio",
            "currentAccumulatedUvNm": "14.876363",
            "priorAccumlatedUvNm": "14.88775",
            "ytdRateNm": "5.02",
            "currAccumulatedUvDt": "12/10/2020",
            "priorAccumulatedUvDt": "12/09/2020",
            "changeFromPrevDayNm": "-0.011389",
            "oneDayReturn": "-0.08",
            "agentCh": "Y",
            "tpdCh": "N"
        },
        {
            "productUnitValueCd": "CE2",
            "accountUnitValueNo": "SepAcct1",
            "fundUnitvalueNm": "DFA VA U.S. Targeted Value Portfolio",
            "currentAccumulatedUvNm": "14.947079",
            "priorAccumlatedUvNm": "14.85826",
            "ytdRateNm": "2.59",
            "currAccumulatedUvDt": "12/10/2020",
            "priorAccumulatedUvDt": "12/09/2020",
            "changeFromPrevDayNm": "0.088822",
            "oneDayReturn": "0.60",
            "agentCh": "Y",
            "tpdCh": "N"
        },
        {
            "productUnitValueCd": "CE2",
            "accountUnitValueNo": "SepAcct1",
            "fundUnitvalueNm": "Fidelity VIP Freedom 2050 Portfolio - Initial Class",
            "currentAccumulatedUvNm": "15.027640",
            "priorAccumlatedUvNm": "14.98888",
            "ytdRateNm": "16.00",
            "currAccumulatedUvDt": "12/10/2020",
            "priorAccumulatedUvDt": "12/09/2020",
            "changeFromPrevDayNm": "0.038762",
            "oneDayReturn": "0.26",
            "agentCh": "Y",
            "tpdCh": "N"
        },
        {
            "productUnitValueCd": "CE2",
            "accountUnitValueNo": "SepAcct1",
            "fundUnitvalueNm": "Lazard Retirement International Equity Portfolio-Service Shr",
            "currentAccumulatedUvNm": "16.573288",
            "priorAccumlatedUvNm": "16.57340",
            "ytdRateNm": "5.24",
            "currAccumulatedUvDt": "12/10/2020",
            "priorAccumulatedUvDt": "12/09/2020",
            "changeFromPrevDayNm": "-0.000113",
            "oneDayReturn": "0.00",
            "agentCh": "Y",
            "tpdCh": "N"
        },
        {
            "productUnitValueCd": "CE2",
            "accountUnitValueNo": "SepAcct1",
            "fundUnitvalueNm": "PIMCO VIT Emerging Markets Bond Portfolio - Institutional Cl",
            "currentAccumulatedUvNm": "11.911654",
            "priorAccumlatedUvNm": "11.89245",
            "ytdRateNm": "5.15",
            "currAccumulatedUvDt": "12/10/2020",
            "priorAccumulatedUvDt": "12/09/2020",
            "changeFromPrevDayNm": "0.019201",
            "oneDayReturn": "0.16",
            "agentCh": "Y",
            "tpdCh": "N"
        },
        {
            "productUnitValueCd": "CE2",
            "accountUnitValueNo": "SepAcct1",
            "fundUnitvalueNm": "TOPS Managed Risk Moderate Growth ETF Port - Cls 2 Shares",
            "currentAccumulatedUvNm": "15.857870",
            "priorAccumlatedUvNm": "15.80547",
            "ytdRateNm": "4.19",
            "currAccumulatedUvDt": "12/10/2020",
            "priorAccumulatedUvDt": "12/09/2020",
            "changeFromPrevDayNm": "0.052402",
            "oneDayReturn": "0.33",
            "agentCh": "Y",
            "tpdCh": "N"
        },
        {
            "productUnitValueCd": "CE2",
            "accountUnitValueNo": "SepAcct1",
            "fundUnitvalueNm": "Fidelity VIP Growth Portfolio - Initial Class",
            "currentAccumulatedUvNm": "57.813226",
            "priorAccumlatedUvNm": "57.57807",
            "ytdRateNm": "40.25",
            "currAccumulatedUvDt": "12/10/2020",
            "priorAccumulatedUvDt": "12/09/2020",
            "changeFromPrevDayNm": "0.235159",
            "oneDayReturn": "0.41",
            "agentCh": "Y",
            "tpdCh": "N"
        },
        {
            "productUnitValueCd": "CE2",
            "accountUnitValueNo": "SepAcct1",
            "fundUnitvalueNm": "Fidelity VIP Value Portfolio - Initial Class",
            "currentAccumulatedUvNm": "14.280933",
            "priorAccumlatedUvNm": "14.27189",
            "ytdRateNm": "3.82",
            "currAccumulatedUvDt": "12/10/2020",
            "priorAccumulatedUvDt": "12/09/2020",
            "changeFromPrevDayNm": "0.009045",
            "oneDayReturn": "0.06",
            "agentCh": "Y",
            "tpdCh": "N"
        },
        {
            "productUnitValueCd": "CE2",
            "accountUnitValueNo": "SepAcct1",
            "fundUnitvalueNm": "Voya Russell Mid Cap Index Portfolio - Initial Class",
            "currentAccumulatedUvNm": "26.827486",
            "priorAccumlatedUvNm": "26.70356",
            "ytdRateNm": "14.02",
            "currAccumulatedUvDt": "12/10/2020",
            "priorAccumulatedUvDt": "12/09/2020",
            "changeFromPrevDayNm": "0.123924",
            "oneDayReturn": "0.46",
            "agentCh": "Y",
            "tpdCh": "N"
        },
        {
            "productUnitValueCd": "CE2",
            "accountUnitValueNo": "SepAcct1",
            "fundUnitvalueNm": "LVIP SSGA Emerging Markets Equity Index Fund-Standard Class",
            "currentAccumulatedUvNm": "14.098820",
            "priorAccumlatedUvNm": "14.02436",
            "ytdRateNm": "40.99",
            "currAccumulatedUvDt": "12/10/2020",
            "priorAccumulatedUvDt": "12/09/2020",
            "changeFromPrevDayNm": "0.074463",
            "oneDayReturn": "0.53",
            "agentCh": "Y",
            "tpdCh": "N"
        },
        {
            "productUnitValueCd": "CE2",
            "accountUnitValueNo": "SepAcct1",
            "fundUnitvalueNm": "Victory RS Small Cap Growth Equity-Class I",
            "currentAccumulatedUvNm": "16.005270",
            "priorAccumlatedUvNm": "15.72096",
            "ytdRateNm": "33.99",
            "currAccumulatedUvDt": "12/10/2020",
            "priorAccumulatedUvDt": "12/09/2020",
            "changeFromPrevDayNm": "0.284306",
            "oneDayReturn": "1.81",
            "agentCh": "Y",
            "tpdCh": "N"
        },
        {
            "productUnitValueCd": "CE2",
            "accountUnitValueNo": "SepAcct1",
            "fundUnitvalueNm": "MainStay VP IQ Hedge Multi-Strategy - Initial Class",
            "currentAccumulatedUvNm": "8.597143",
            "priorAccumlatedUvNm": "8.56408",
            "ytdRateNm": "4.32",
            "currAccumulatedUvDt": "12/10/2020",
            "priorAccumulatedUvDt": "12/09/2020",
            "changeFromPrevDayNm": "0.033060",
            "oneDayReturn": "0.39",
            "agentCh": "Y",
            "tpdCh": "N"
        },
        {
            "productUnitValueCd": "CE2",
            "accountUnitValueNo": "SepAcct1",
            "fundUnitvalueNm": "MainStay VP MacKay S&P 500 Index - Initial Class",
            "currentAccumulatedUvNm": "44.860505",
            "priorAccumlatedUvNm": "44.91521",
            "ytdRateNm": "15.12",
            "currAccumulatedUvDt": "12/10/2020",
            "priorAccumulatedUvDt": "12/09/2020",
            "changeFromPrevDayNm": "-0.054703",
            "oneDayReturn": "-0.12",
            "agentCh": "Y",
            "tpdCh": "N"
        },
        {
            "productUnitValueCd": "CE2",
            "accountUnitValueNo": "SepAcct1",
            "fundUnitvalueNm": "T. Rowe Price Moderate Allocation Portfolio",
            "currentAccumulatedUvNm": "23.952333",
            "priorAccumlatedUvNm": "23.92176",
            "ytdRateNm": "12.43",
            "currAccumulatedUvDt": "12/10/2020",
            "priorAccumulatedUvDt": "12/09/2020",
            "changeFromPrevDayNm": "0.030571",
            "oneDayReturn": "0.13",
            "agentCh": "Y",
            "tpdCh": "N"
        },
        {
            "productUnitValueCd": "CE2",
            "accountUnitValueNo": "SepAcct1",
            "fundUnitvalueNm": "LVIP SSgA Bond Index Std",
            "currentAccumulatedUvNm": "12.661691",
            "priorAccumlatedUvNm": "12.63447",
            "ytdRateNm": "6.92",
            "currAccumulatedUvDt": "12/10/2020",
            "priorAccumulatedUvDt": "12/09/2020",
            "changeFromPrevDayNm": "0.027223",
            "oneDayReturn": "0.22",
            "agentCh": "Y",
            "tpdCh": "N"
        },
        {
            "productUnitValueCd": "CE2",
            "accountUnitValueNo": "SepAcct1",
            "fundUnitvalueNm": "PIMCO VIT Global Bond Opps Portfolio (Unhedged) - Adm Class",
            "currentAccumulatedUvNm": "13.894299",
            "priorAccumlatedUvNm": "13.85945",
            "ytdRateNm": "8.45",
            "currAccumulatedUvDt": "12/10/2020",
            "priorAccumulatedUvDt": "12/09/2020",
            "changeFromPrevDayNm": "0.034847",
            "oneDayReturn": "0.25",
            "agentCh": "Y",
            "tpdCh": "N"
        },
        {
            "productUnitValueCd": "CE2",
            "accountUnitValueNo": "SepAcct1",
            "fundUnitvalueNm": "PIMCO VIT Long-Term US Govt Portfolio - Administrative Class",
            "currentAccumulatedUvNm": "21.699268",
            "priorAccumlatedUvNm": "21.53741",
            "ytdRateNm": "17.31",
            "currAccumulatedUvDt": "12/10/2020",
            "priorAccumulatedUvDt": "12/09/2020",
            "changeFromPrevDayNm": "0.161859",
            "oneDayReturn": "0.75",
            "agentCh": "Y",
            "tpdCh": "N"
        },
        {
            "productUnitValueCd": "CE2",
            "accountUnitValueNo": "SepAcct1",
            "fundUnitvalueNm": "Thrivent Global Stock Portfolio",
            "currentAccumulatedUvNm": "13.390195",
            "priorAccumlatedUvNm": "13.35079",
            "ytdRateNm": "33.90",
            "currAccumulatedUvDt": "12/10/2020",
            "priorAccumulatedUvDt": "12/09/2020",
            "changeFromPrevDayNm": "0.039409",
            "oneDayReturn": "0.30",
            "agentCh": "Y",
            "tpdCh": "N"
        },
        {
            "productUnitValueCd": "CE2",
            "accountUnitValueNo": "SepAcct1",
            "fundUnitvalueNm": "TOPS Moderate Growth ETF Portfolio - Class 2 Shares",
            "currentAccumulatedUvNm": "19.862470",
            "priorAccumlatedUvNm": "19.81722",
            "ytdRateNm": "8.68",
            "currAccumulatedUvDt": "12/10/2020",
            "priorAccumulatedUvDt": "12/09/2020",
            "changeFromPrevDayNm": "0.045248",
            "oneDayReturn": "0.23",
            "agentCh": "Y",
            "tpdCh": "N"
        },
        {
            "productUnitValueCd": "CE2",
            "accountUnitValueNo": "SepAcct1",
            "fundUnitvalueNm": "Columbia VP Emerging Markets Bond Fund - Class 1",
            "currentAccumulatedUvNm": "11.849774",
            "priorAccumlatedUvNm": "11.81398",
            "ytdRateNm": "18.50",
            "currAccumulatedUvDt": "12/10/2020",
            "priorAccumulatedUvDt": "12/09/2020",
            "changeFromPrevDayNm": "0.035792",
            "oneDayReturn": "0.30",
            "agentCh": "Y",
            "tpdCh": "N"
        },
        {
            "productUnitValueCd": "CE2",
            "accountUnitValueNo": "SepAcct1",
            "fundUnitvalueNm": "MainStay VP MacKay High Yield Corporate Bond - Initial Class",
            "currentAccumulatedUvNm": "37.987939",
            "priorAccumlatedUvNm": "37.97269",
            "ytdRateNm": "4.12",
            "currAccumulatedUvDt": "12/10/2020",
            "priorAccumulatedUvDt": "12/09/2020",
            "changeFromPrevDayNm": "0.015251",
            "oneDayReturn": "0.04",
            "agentCh": "Y",
            "tpdCh": "N"
        },
        {
            "productUnitValueCd": "CE2",
            "accountUnitValueNo": "SepAcct1",
            "fundUnitvalueNm": "VY Morgan Stanley Global Franchise Portfolio-Class R6",
            "currentAccumulatedUvNm": "11.851059",
            "priorAccumlatedUvNm": "11.84440",
            "ytdRateNm": "18.51",
            "currAccumulatedUvDt": "12/10/2020",
            "priorAccumulatedUvDt": "12/09/2020",
            "changeFromPrevDayNm": "0.006664",
            "oneDayReturn": "0.06",
            "agentCh": "Y",
            "tpdCh": "N"
        },
        {
            "productUnitValueCd": "CE2",
            "accountUnitValueNo": "SepAcct1",
            "fundUnitvalueNm": "MFS International Intrinsic Value Portfolio - Initial Class",
            "currentAccumulatedUvNm": "28.139847",
            "priorAccumlatedUvNm": "28.09866",
            "ytdRateNm": "16.64",
            "currAccumulatedUvDt": "12/10/2020",
            "priorAccumulatedUvDt": "12/09/2020",
            "changeFromPrevDayNm": "0.041190",
            "oneDayReturn": "0.15",
            "agentCh": "Y",
            "tpdCh": "N"
        },
        {
            "productUnitValueCd": "CE2",
            "accountUnitValueNo": "SepAcct1",
            "fundUnitvalueNm": "Thrivent Large Cap Growth Portfolio",
            "currentAccumulatedUvNm": "13.856500",
            "priorAccumlatedUvNm": "13.79115",
            "ytdRateNm": "38.57",
            "currAccumulatedUvDt": "12/10/2020",
            "priorAccumulatedUvDt": "12/09/2020",
            "changeFromPrevDayNm": "0.065352",
            "oneDayReturn": "0.47",
            "agentCh": "Y",
            "tpdCh": "N"
        },
        {
            "productUnitValueCd": "CE2",
            "accountUnitValueNo": "SepAcct1",
            "fundUnitvalueNm": "Invesco Oppenheimer V.I. Total Return Bond Fund-Series I",
            "currentAccumulatedUvNm": "17.430269",
            "priorAccumlatedUvNm": "17.40964",
            "ytdRateNm": "9.06",
            "currAccumulatedUvDt": "12/10/2020",
            "priorAccumulatedUvDt": "12/09/2020",
            "changeFromPrevDayNm": "0.020632",
            "oneDayReturn": "0.12",
            "agentCh": "Y",
            "tpdCh": "N"
        },
        {
            "productUnitValueCd": "CE2",
            "accountUnitValueNo": "SepAcct1",
            "fundUnitvalueNm": "American Century VP Mid Cap Value - Class II",
            "currentAccumulatedUvNm": "17.704554",
            "priorAccumlatedUvNm": "17.73910",
            "ytdRateNm": ".57",
            "currAccumulatedUvDt": "12/10/2020",
            "priorAccumulatedUvDt": "12/09/2020",
            "changeFromPrevDayNm": "-0.034549",
            "oneDayReturn": "-0.20",
            "agentCh": "Y",
            "tpdCh": "N"
        },
        {
            "productUnitValueCd": "CE2",
            "accountUnitValueNo": "SepAcct1",
            "fundUnitvalueNm": "DFA VA U.S. Large Value Portfolio",
            "currentAccumulatedUvNm": "14.712489",
            "priorAccumlatedUvNm": "14.72895",
            "ytdRateNm": "-1.94",
            "currAccumulatedUvDt": "12/10/2020",
            "priorAccumulatedUvDt": "12/09/2020",
            "changeFromPrevDayNm": "-0.016460",
            "oneDayReturn": "-0.11",
            "agentCh": "Y",
            "tpdCh": "N"
        }
    ],
    "errorCode": null
}
